"time","1","2","3","4","5","6","7","8","9"
2019.99722222222,0,0,0,0,0,0,0,0,0
2020,5.84964397457953e-05,6.23416149472321e-05,6.78818482324889e-05,6.57818023354192e-05,5.94212846429621e-05,6.20294061602904e-05,5.66806216594791e-05,3.54666236599781e-05,1.93613628392531e-05
2020.00277777778,0.0001023525529214,0.000109095578736342,0.000118789783363392,0.000115118746714026,0.000103989936539611,0.000108548078057754,9.91903812647098e-05,6.20731816096458e-05,3.38911899611481e-05
2020.00555555556,0.000151559962829597,0.000163654612139133,0.000184705900246696,0.000173263724800033,0.000156585396386673,0.000162503948259499,0.00014440316131232,8.65247059594215e-05,4.72484912229467e-05
2020.00833333333,0.000210490431361872,0.000230885530783439,0.000271581003544231,0.000245414326121509,0.000221908963858271,0.000228709691476961,0.000196308905528907,0.00011093399421507,6.05855978999928e-05
2020.01111111111,0.000281889330240464,0.000314039471466168,0.000384105896177042,0.000335736132992176,0.000303438241998035,0.000310738091099982,0.000257746269097402,0.00013671539215568,7.46741766960958e-05
2020.01388888889,0.000368741978422353,0.000416826604601078,0.000528164157898075,0.000449223060811684,0.000405273404212769,0.000412760390723423,0.000331797607044325,0.000165168168586414,9.02235942352779e-05
2020.01666666667,0.000474721126173551,0.000543836397308899,0.000711202773822,0.000592037840209677,0.000532517898195616,0.000539919987896278,0.000422118363244055,0.000197657813227999,0.000107979822441699
2020.01944444444,0.000604443569121732,0.000700791443655981,0.000942539920426065,0.000771806082354993,0.000691556536131259,0.000698606649696932,0.000533161423643305,0.000235727242292343,0.000128786147289832
2020.02222222222,0.000763720908662168,0.000894830945426211,0.001233785455524,0.000997983955790632,0.000890375236679615,0.000896774446306931,0.000670412341972267,0.000281192361068736,0.000153635392809529
2020.025,0.000959853337883691,0.00113486300700945,0.00159938964086381,0.00128231660887256,0.00113895276925833,0.00114433185084194,0.000840664262636551,0.000336240104451816,0.000183723547107701
2020.02777777778,0.00120199128857116,0.00143200553860294,0.0020573378144114,0.00163940728934157,0.00144974696397806,0.00145362521536288,0.0010523516121834,0.000403539380033153,0.000220510483426248
2020.03055555556,0.00150158579925404,0.00180013662240914,0.00263002105990583,0.00208742458882104,0.00183830051319675,0.00184004007307116,0.00131596141911711,0.000486373003950476,0.000265792200625719
2020.03333333333,0.00187295046133069,0.00225658043608422,0.00334532412850036,0.00264898256347351,0.00232399654364885,0.00232275002935431,0.00164454355753628,0.000588798364283321,0.000321788818460167
2020.03611111111,0.00233396252353697,0.00282296172169329,0.00423798338282119,0.00335223696794796,0.00293100107757996,0.00292564998418387,0.00205434538480988,0.000715845282306344,0.000391252969732143
2020.03888888889,0.00290693733534559,0.00352627021032136,0.00535128094500522,0.0042322513476086,0.00368943846870122,0.00367851931812373,0.00256560200623992,0.000873761034783015,0.000477604052413508
2020.04166666667,0.00361971873925711,0.00440018675398184,0.00673915765293245,0.00533269987209542,0.00463685721745661,0.00461847185010376,0.00320352085329655,0.00107031464660553,0.000585094983765294
2020.04444444444,0.00450703857121619,0.00548673572477137,0.00846884782778222,0.00670799020539411,0.0058200577321466,0.0057917633480572,0.00399950868075118,0.00131517538158068,0.000719019646332108
2020.04722222222,0.00561221157724362,0.00683834417296304,0.0106241642733655,0.00842591018600844,0.00729737127145926,0.00725604480835018,0.00499270088857244,0.001620383946191,0.000885971185500758
2020.05,0.00698924843609473,0.008520408084203,0.0133095936122065,0.0105709276298841,0.00914150133064446,0.00908317145989177,0.00623186781254376,0.00200093943166721,0.00109416379538744
2020.05277777778,0.00870548999051648,0.0106144908159818,0.016655401559602,0.0132483044128989,0.0114430661880582,0.0113627045513368,0.00777779101288938,0.00247553066393094,0.00135383372980275
2020.05555555556,0.0108448912296325,0.0132223096338983,0.020823996968894,0.0165892256922519,0.0143150155486715,0.0142062767654069,0.00970622551513959,0.00306744767944207,0.00167773914673241
2020.05833333333,0.0135121152733917,0.0164707047133168,0.0260178648480707,0.0207571946235911,0.0178981368749447,0.0177530342199267,0.0121115925379578,0.00380571783922553,0.00208178322599764
2020.06111111111,0.0168376371335484,0.0205178328963101,0.0324894550407321,0.0259560046373049,0.0223679201635029,0.0221764205137795,0.0151115828713718,0.00472652206129291,0.00258579102590613
2020.06388888889,0.0209841062918589,0.0255608882336888,0.0405535086121652,0.0324396782622488,0.0279431162015165,0.0276926337168496,0.0188528954825864,0.00587496032794433,0.00321447805987802
2020.06666666667,0.0261542785475997,0.0318457258097556,0.0506024228315995,0.0405248573793207,0.0348964059520642,0.0345711687762105,0.0235183912905849,0.00730725267614419,0.00399865794525662
2020.06944444444,0.0326009041377548,0.0396788581734786,0.0631254037879571,0.0506062493264916,0.0435677017023412,0.0431479594927085,0.0293360110642724,0.00909348313829169,0.004976748161586
2020.07222222222,0.0406390545570712,0.049442409409166,0.078732340339625,0.0631758822896048,0.0543807289849124,0.0538417609691604,0.0365898924266122,0.0113210206046147,0.00619664752543468
2020.075,0.0506614894545301,0.0616127561129979,0.0981835632795741,0.0788471091647269,0.0678636983109739,0.067174571421727,0.0456342281830846,0.0140987836204167,0.00771807715519395
2020.07777777778,0.0631578132574581,0.0767837643297558,0.122426940514316,0.0983845306242215,0.0846750752397508,0.0837970891804241,0.0569105418646665,0.0175625573238334,0.00961549934970968
2020.08055555556,0.0787383560040157,0.0956957556105604,0.15264411669227,0.122741296748486,0.105635705977485,0.104520446181904,0.070969222999745,0.0218816220826057,0.0119817570456942
2020.08333333333,0.0981639432606725,0.119271614701128,0.190308151503751,0.153105606369345,0.131768865678671,0.130355765241886,0.0884963723284092,0.0272670174073472,0.0149326117302715
2020.08611111111,0.12238300719634,0.148661799577066,0.237255366535882,0.190958671748561,0.164350183026086,0.162563469798861,0.110347266070816,0.0339818445275119,0.0186124015868634
2020.08888888889,0.152577848880652,0.185300448579902,0.295774903179888,0.238146975247791,0.204969876335341,0.202714750232925,0.137588071078508,0.0423541105086595,0.0232010963895207
2020.09166666667,0.190222308123222,0.23097532042947,0.368720357406902,0.296972341484988,0.255610336848961,0.252768183452669,0.171547844963598,0.0527927408198072,0.0289230939065371
2020.09444444444,0.23715365342797,0.287914977263066,0.459648933320035,0.370304217083087,0.31874284332799,0.315165241087169,0.213883356722253,0.0658075418787269,0.0360581876623092
2020.09722222222,0.295662198018246,0.35889746144572,0.572994898689856,0.461719632837648,0.397448125005012,0.392949342313912,0.266659888384555,0.0820340878541773,0.0449552419930282
2020.1,0.368603012194008,0.447385764674598,0.714285797542682,0.575677672732606,0.495566652914408,0.489914254961212,0.332451957293837,0.102264746290362,0.0560492425984788
2020.10277777778,0.459535179641764,0.557696693924779,0.890411958754742,0.717736956494525,0.617885989257111,0.610789078964691,0.414468869713157,0.127487356662026,0.0698825556990345
2020.10555555556,0.572895388244366,0.695211366696636,1.10996243704013,0.894826739282396,0.770374331454813,0.7614688292299,0.516711226899055,0.158933449380279,0.0871314345077946
2020.10833333333,0.714214319885731,0.866637597152511,1.38364376025102,1.11558484585257,0.960471639985562,0.949301857328586,0.644166013559391,0.198138358263861,0.108639068063706
2020.11111111111,0.890386390300548,1.08033696394453,1.72480189225774,1.39077891448895,1.19745254676043,1.18344812151023,0.803049779244197,0.247016159773149,0.135456787060705
2020.11388888889,1.11000599087133,1.34673250306987,2.15007285042328,1.73383148690437,1.49287874054769,1.4753257671956,1.00111176734312,0.30795309567767,0.168895439757001
2020.11666666667,1.38378662617369,1.67881689854164,2.68019368583946,2.16147454207511,1.86116288834887,1.83916778363547,1.24801176819634,0.383924037572472,0.210589447814258
2020.11944444444,1.72508338199644,2.0927859414715,3.34101334841239,2.69456538119414,2.32027158928357,2.29271586640276,1.55579111472484,0.4786376757523,0.262576671255107
2020.12222222222,2.15054419542251,2.60882813292638,4.16475269815263,3.35910363500827,2.89260163543732,2.85808530111857,1.93945977837949,0.596717516213823,0.327397983879033
2020.125,2.68092167677039,3.2521089150262,5.19157506295696,4.18749896685352,3.60607230254695,3.56284301693143,2.41772818123726,0.743927516316897,0.408221423140329
2020.12777777778,3.34208505864537,4.05399749882306,6.47154387289447,5.22015126220543,4.49548692398899,4.44135134461541,3.01391939235027,0.927453367070163,0.508996978665016
2020.13055555556,4.16628160127,5.05359607846565,8.0670627582253,6.50742032360576,5.6042301273493,5.53644295952274,3.75710616648286,1.15625314428142,0.634649579855199
2020.13333333333,5.19370894078774,6.29964595467998,10.0559170011663,8.11208107005377,6.98638347330527,6.90150862435986,4.68352823925522,1.4414944342606,0.791319708436705
2020.13611111111,6.47447502051754,7.85290345412331,12.5350645238613,10.1123838966145,8.70936262853484,8.6030994563966,5.83835894797651,1.79709925732429,0.986663387396764
2020.13888888889,8.07104113214614,9.78910141875421,15.625361102788,12.6058693348881,10.857204620981,10.7241705071788,7.2779072669859,2.2404233696078,1.23022619702969
2020.14166666667,10.0612671342301,12.2026405651449,19.4774499994036,15.7141229033779,13.5346654046189,13.3681236799366,9.07236255869588,2.79310307687243,1.5339095832362
2020.14444444444,12.5422072551563,15.2111905659588,24.2791029016546,19.5887018371273,16.8723274440392,16.6638469406407,11.3092157792418,3.48211086244616,1.91255222915452
2020.14722222222,15.6348414548908,18.9614250144852,30.2643697387499,24.4185224665918,21.0329662382084,20.7719952969035,14.0975238272209,4.34107131314064,2.38465487844438
2020.15,19.4899728937065,23.6361696534414,37.7249829977841,30.4390681527662,26.2194860317721,25.8928194841187,17.573224788425,5.41190151791938,2.97328400105826
2020.15277777778,24.2955788533931,29.4633120662774,47.024571914687,37.943866337478,32.6848113937242,32.275923649695,21.9057630058119,6.74685593229348,3.70719842154988
2020.15555555556,30.2859732387148,36.726906787655,58.6163786631646,47.298793742107,40.7442165922801,40.2324272251176,27.3063466800227,8.41107541699202,4.62225391138175
2020.15833333333,37.7532269938078,45.7810166554183,73.0653390602887,58.9599064093504,50.7906933882553,50.1501231814808,34.0382401802605,10.4857647318676,5.7631543104958
2020.16111111111,47.0614026834847,57.0669643868179,91.0756026082099,73.4956628104349,63.3141057685418,62.5123706545424,42.4295922773266,13.0721533905313,7.18563465019283
2020.16388888889,58.6642964468061,71.1348342755959,113.524831180946,91.6146219488481,78.9250644186472,77.9216415679424,52.889424904995,16.2964329466764,8.95918282205133
2020.16666666667,73.1275511692746,88.6702706126139,141.506945136732,114.199964627692,98.3846833146349,97.1288671737802,65.9275607938668,20.3159113435462,11.1704326011762
2020.16944444444,91.1562173029295,110.527876933427,176.38539600009,142.352517681164,122.641666804412,121.07001231062,82.1794598464587,25.3266842220034,13.9273935628388
2020.17222222222,113.629102568185,137.772840931881,219.859555888783,177.4443740026,152.878531753645,150.911656256743,102.437172692207,31.5731969235881,17.3647242184489
2020.175,141.641581575965,171.732809313871,274.047450121742,221.185715513785,190.569212911532,188.107796240906,127.687916987873,39.3601629181315,21.6503055170994
2020.17777777778,176.558947091563,214.062534210861,341.588851417924,275.708086497398,237.550851914012,234.470633963815,159.162152016537,49.0674189776931,26.9934351722417
2020.18055555556,220.082895936828,266.82443187438,425.773739572717,343.668161574297,296.11325772231,292.258782936862,198.393487747232,61.1684401373871,33.6550421372291
2020.18333333333,274.334378848485,332.588964798855,530.702356263219,428.377043980817,369.110381551876,364.287177352976,247.293337778199,76.2534151953834,41.960418767513
2020.18611111111,341.956835273291,414.559716787401,661.484608509975,533.961362607193,460.099213016489,454.064011533233,308.243938795264,95.0580047310812,52.3150904869644
2020.18888888889,426.244818561915,516.729222055071,824.488467622881,665.563968420818,573.512826359771,565.961342115151,384.214246100371,118.499178927677,65.2245949685721
2020.19166666667,531.304240592804,644.073090113023,1027.64936089125,829.593933752403,714.87594796243,705.427603920839,478.904317098613,147.719874954436,81.3191321865932
2020.19444444444,662.251984502145,802.791806631194,1280.8554683398,1034.03791904607,891.073454586891,879.252299660267,596.925163733545,184.144639463274,101.38428214928
2020.19722222222,825.46451988528,1000.61187104017,1596.42744772479,1288.84789815049,1110.68473880432,1095.89561487318,744.022753798767,229.548950824352,126.399279720097
2020.2,1028.88749213437,1247.16075725904,1989.71557669324,1606.42385531928,1384.40000669826,1365.89879440837,927.356946972696,286.145572591655,157.584699263535
2020.20277777778,1282.42115058809,1554.43367965918,2479.8428132062,2002.21454217869,1725.53843993179,1702.39493046702,1155.84875820584,356.692104409997,196.461852559343
2020.20555555556,1598.4000546962,1937.3744629424,3090.62906217107,2495.46489947268,2150.692923589,2121.74451720447,1440.61256223526,444.624905822141,244.926761834802
2020.20833333333,1992.18990413296,2414.5981320329,3851.74026598101,3110.14552938466,2680.53190739153,2644.32591609097,1795.49382453049,554.225816689574,305.34226051929
2020.21111111111,2482.92975608168,3009.28936850975,4800.11611855867,3876.10790913697,3340.79615815733,3295.51797564835,2237.7378269978,690.829638740109,380.652627106944
2020.21388888889,3094.45452841657,3750.3189690985,5981.74258321185,4830.51916028924,4163.5369353243,4106.92071792064,2788.82083905999,861.082239880578,474.526207689889
2020.21666666667,3856.44077743135,4673.63016620509,7453.85034639863,6019.64245427125,5188.65276616748,5117.87053026324,3475.48248018887,1073.26147129631,591.532771865704
2020.21944444444,4805.82854259379,5823.9584305729,9287.63823423344,7501.04387868656,6465.79481476266,6377.31899025652,4331.00686412839,1337.67593334202,737.363922751867
2020.22222222222,5988.58383816218,7256.96247671402,11571.6417781201,9346.3241246566,8056.72611849814,7946.15960196993,5396.81075358445,1667.16008653195,919.106798479814
2020.225,7461.88039569109,9041.86090626378,14415.8917243361,11644.4939140336,10038.237936409,9900.10457828327,6724.40961964015,2077.68838231639,1145.58361748343
2020.22777777778,9296.79571125537,11264.6884304001,17957.0352373475,14506.1357098222,12505.7471963478,12333.2344775066,8377.8473694756,2589.13608825781,1427.77239077825
2020.23055555556,11581.6353677977,14032.3078817891,22364.6232156618,18068.5206241423,15577.722334833,15362.3668351742,10436.6926268486,3226.22039298125,1779.32740117438
2020.23333333333,14426.0207419863,17477.338844448,27848.7989697531,22501.8775914406,19401.1099645976,19132.4152767658,12999.7236185646,4019.66224843214,2217.2218606586
2020.23611111111,15850.3265899496,19202.8564414139,30590.8304462094,24721.3067245656,21315.7439084551,21019.938960531,14284.5419873596,4418.63726779779,2437.34332800738
2020.23888888889,18151.612000313,21989.6085606265,35020.0518645954,28304.8311496934,24407.2597596197,24068.073682227,16358.7983379829,5062.09162632351,2792.55059453185
2020.24166666667,20934.4387717762,25358.8523607454,40372.5025362411,32636.0655920801,28144.2910742076,27752.7799347996,18866.8977219327,5840.43860264681,3222.3124832508
2020.24444444444,24168.8408713107,29274.1503381581,46588.2689236368,37667.2605359371,32485.8936043404,32033.7303160445,21781.9392052555,6745.6486925992,3722.20248658348
2020.24722222222,27902.5517293577,33793.0216900384,53756.4864731721,43471.2546739176,37495.2010463316,36973.2747437753,25146.9397374223,7791.37432188181,4299.77683717075
2020.25,28706.4064940015,34765.8086994793,55281.612574241,44714.3119454773,38570.3720410768,38033.1226060102,25874.3322617624,8021.02727968068,4426.53574077937
2020.25277777778,30505.8902236915,36942.2785649024,58714.8797953538,47501.272020683,40978.5252985102,40407.7648783159,27497.3131786682,8528.64392483366,4707.0487252456
2020.25555555556,32691.6029604122,39585.1598666239,62883.257881259,50884.5468403604,43902.1882984065,43291.0074001706,29467.9148300568,9144.82074440908,5047.66157001834
2020.25833333333,35103.7569264482,42501.1016527143,67478.1949245752,54615.030151398,47126.5620751932,46471.0668463655,31642.3887651429,9825.22408449223,5423.86235137645
2020.26111111111,37706.1457414678,45646.2076769865,72428.5420373297,58635.5383315467,50602.4746226244,49899.5195985007,33988.1296799776,10559.9389181427,5830.17098066731
2020.26388888889,37011.3529672772,44803.4234476244,71054.4419276678,57537.0403386902,49659.6019667451,48969.9528141603,33365.3043438515,10372.9122382512,5726.95835831173
2020.26666666667,37133.2290741447,44947.3049507211,71241.6479215843,57701.9211172157,49808.1128222724,49117.037304071,33476.395049309,10413.900452147,5749.99322829025
2020.26944444444,37528.6123218174,45421.2976385312,71949.617418041,58288.553189782,50321.2775074926,49623.9400563238,33833.1675129781,10531.4249579565,5815.45431732717
2020.27222222222,38015.5505833477,46005.5526017604,72829.9353005197,59014.9904808092,50955.6162667931,50250.5008272938,34272.0094888448,10674.7058048895,5895.23172220367
2020.275,38532.9091652164,46626.2466459014,73765.5958356932,59786.4994158506,51629.3076924914,50916.0142920723,34737.9268243445,10826.6710215904,5979.86866222754
2020.27777777778,37657.2769682692,45563.3354934001,72041.4540228521,58402.0086343142,50440.3243197707,49744.2104047032,33949.6460967718,10587.6996341852,5848.26803927435
2020.28055555556,37117.9610887564,44906.6342482506,70959.4516884685,57536.932666401,49700.2135305956,49015.2522883868,33463.3248591138,10442.5832972846,5768.67171337241
2020.28333333333,36697.3071822421,44393.2479368452,70104.4322464809,56855.1616627458,49118.490039876,48442.5596515918,33083.4164149976,10330.4572394359,5707.36993348759
2020.28611111111,36317.3869987733,43929.1011904414,69327.9095187158,56236.4284417877,48591.1870146511,47923.5595225814,32739.9022475642,10229.5154083411,5652.27874570041
2020.28888888889,35950.3639835658,43480.6167305308,68576.9379626938,55637.8376256531,48081.2051830158,47421.6458643003,32407.7804424172,10131.9660847152,5599.07584485321
2020.29166666667,35586.3669563683,43035.9034598841,67832.8128728022,55044.2401964084,47575.4280654971,46923.872646281,32078.2008588651,10035.0484162045,5546.22650560714
2020.29444444444,35221.9714952853,42590.8460208199,67089.1030569456,54450.4395200149,47069.3438353593,46425.7830890639,31748.1113627878,9937.80846671209,5493.19803899743
2020.29722222222,34856.0682934886,42144.117570356,66343.7745307831,53854.8071502048,46561.5275671259,45925.9663482504,31416.5417083707,9839.94158408205,5439.81839469531
2020.3,34488.3803724388,41695.3911201209,65596.3649492528,53256.990796093,46051.6601168971,45424.1030910418,31083.268816439,9741.37646118759,5386.04554623962
2020.30277777778,34118.9304635737,41244.6977534323,64846.9694518243,52657.0909153749,45539.8162583293,44920.2631813288,30748.3369334134,9642.12555955737,5331.88445183937
2020.30555555556,33747.8493398383,40792.1961663132,64095.8765582351,52055.3647420355,45026.2086371719,44414.6530272156,30411.8848772127,9542.23124154606,5277.35707283376
2020.30833333333,33375.3065423039,40338.0897548732,63343.4374868112,51452.1198699721,44511.095539285,43907.5245359846,30074.0836790109,9441.74631270969,5222.49148866252
2020.31111111111,33001.4850790505,39882.596636369,62590.0193339541,50847.6760112428,43994.7475818884,43399.1422052422,29735.1139538618,9340.72694598371,5167.31789775999
2020.31388888889,32626.5719518834,39425.9386649192,61835.9883863608,50242.3512909277,43477.4356250338,42889.7711560374,29395.1575940373,9239.23006789354,5111.86711036961
2020.31666666667,32250.7544085506,38968.3372684695,61081.7042504724,49636.4573781513,42959.4263405654,42379.6727268522,29054.3946435879,9137.31235805843,5056.16995000212
2020.31944444444,31874.2182924319,38510.0117422062,60327.5178511652,49030.2977999973,42440.9805551521,41869.1028093203,28713.0020609674,9035.02983659349,5000.25699166263
2020.32222222222,31497.1471846076,38051.1784347337,59573.7708005422,48424.1674011806,41922.3526067361,41358.3111873695,28371.1531808998,8932.43766981895,4944.15842927085
2020.325,31119.7218664978,37592.0502677406,58820.7952396551,47818.3522149229,41403.7900782052,40847.5412511207,28029.0174445148,8829.59006062684,4887.9039961393
2020.32777777778,30742.1199301834,37132.8363896725,58068.9138333595,47213.1294801011,40885.5336774225,40337.0298570489,27686.7602400956,8726.54017477705,4831.52290995772
2020.33055555556,30364.515470885,36673.741892527,57318.4398066561,46608.7677092212,40367.8171790891,39827.0072505302,27344.542795614,8623.34008499588,4775.04383108122
2020.33333333333,29987.078834814,36214.9675666264,56569.6769857457,46005.5267730134,39850.8673968952,39317.6970193497,27002.5221001842,8520.04072581292,4718.49482934209
2020.33611111111,29609.9764098051,35756.7096843219,55822.9198337188,45403.6579896119,39334.904173716,38809.3160659097,26660.8508448057,8416.69185610959,4661.90335706053
2020.33888888889,29233.3704515302,35299.1598091206,55078.4534800462,44803.4042143336,38820.1403847149,38302.0745929788,26319.6773777888,8313.3420278612,4605.29622692873
2020.34166666667,28857.4189403342,34842.504628535,54336.5537459703,44204.9999289973,38306.7819509132,37796.1761005314,25979.1456722646,8210.03856015148,4548.69959389509
2020.34444444444,28482.2754648162,34386.925809474,53597.4871685645,43608.6713307974,37795.0278618516,37291.8173923171,25639.3953040746,8106.82751780246,4492.13894041327
2020.34722222222,28108.0891289261,33932.5998750923,52861.5110261064,43014.6364211222,37285.0702064415,36789.1885912814,25300.5614387971,8003.75369410222,4435.63906456611
2020.35,27735.0044798087,33479.6981019932,52128.873367034,42423.1050948341,36777.0942113364,36288.4731631919,24962.7748269382,7900.86059720206,4379.22407067523
2020.35277777778,27363.161453996,33028.3864366415,51399.8130443302,41834.2792305454,36271.2782862901,35789.847947966,24626.1618065079,7798.19043982056,4322.91736208171
2020.35555555556,26992.6953398588,32578.8254298178,50674.5597567692,41248.3527823987,35767.7940760592,35293.4831982719,24290.844312338,7695.78413194456,4266.74163584135
2020.35833333333,26623.736754498,32131.1701879382,49953.3340980909,40665.5118738157,35266.8065184686,34799.5426250371,23956.9398916033,7593.68127626032,4210.71887912319
2020.36111111111,26256.4116334838,31685.5703400816,49236.3476148501,40085.93489362,34768.4739083066,34308.1834495293,23624.5617250901,7491.92016608442,4154.87036713629
2020.36388888889,25890.8412320554,31242.170019588,48523.8028734106,39509.7925948754,34272.9479667473,33819.5564617049,23293.8186538167,7390.5377855937,4099.21666243857
2020.36666666667,25527.1421365629,30801.1078591368,47815.8935363247,38937.2481967198,33780.3739160221,33333.8060845302,22964.8152106609,7289.56981217894,4043.77761550394
2020.36944444444,25165.4262850831,30362.5169982554,47112.8044481457,38368.4574894048,33290.8905590783,32851.0704439936,22637.651656683,7189.0506207669,3988.57236644261
2020.37222222222,24805.8009962696,29926.5251022621,46414.7117305645,37803.568942692,32804.6303639728,32371.4814445282,22312.4240218622,7089.01328997292,3933.6193477835
2020.375,24448.3690056057,29493.2543917006,45721.7828866315,37242.723817694,32321.7195527531,31895.164849568,21989.2241499853,6989.4896099594,3878.93628823917
2020.37777777778,24093.228508324,29062.8216813762,45034.1769137257,36686.0562821929,31842.2781945813,31422.2403669575,21668.1397474383,6890.51009188715,3824.54021738289
2020.38055555556,23740.4732083339,28635.3384281598,44352.0444248544,36133.6935294185,31366.4203028581,30952.8217389342,21349.2544356663,6792.10397885531,3770.44747117421
2020.38333333333,23390.1923725718,28210.9107867762,43675.5277778058,35585.7559002197,30894.253936099,30487.0168364015,21032.6478070722,6694.29925823304,3716.67369827552
2020.38611111111,23042.4708902402,27789.6396728458,43004.7612116372,35042.3570085226,30425.8813023168,30024.9277572042,20718.3954841331,6597.12267529206,3663.23386710595
2020.38888888889,22697.3893364589,27371.6208324943,42339.8709899483,34503.6038699345,29961.3988666589,29566.6509281212,20406.5691815137,6500.59974805387,3610.14227358306
2020.39166666667,22355.0240398889,26956.9449178938,41680.9755503758,33969.5970333173,29500.8974620473,29112.2772102859,20097.2367709648,6404.75478326944,3557.41254950517
2020.39444444444,22015.4471539291,26545.6975681367,41028.1856597346,33440.4307151342,29044.4624025686,28661.8920077456,19790.4623487924,6309.61089345236,3505.05767152955
2020.39722222222,21678.7267311161,26137.9594948896,40381.604574231,32916.192936347,28592.1735993558,28215.5753788709,19486.3063056906,6215.19001488925,3453.08997070375
2020.4,21344.9268003866,25733.8065723053,39741.3282041809,32396.9656616281,28144.1056787096,27773.4021503309,19184.8253987295,6121.5129265535,3401.52114250852
2020.40277777778,21014.1074468817,25333.3099307102,39107.4452826748,31882.8249406372,27700.3281022028,27335.442033349,18886.0728252969,6028.5992698506,3350.3622573726
2020.40555555556,20686.3248939992,24936.5360536153,38480.0375376476,31373.8410511035,27260.9052885148,26901.7597419609,18590.0982987918,5936.46756912511,3299.62377162023
2020.40833333333,20361.6315874117,24543.5468776259,37859.1798668294,30870.0786434491,26825.8967367465,26472.4151129999,18296.9481258736,5845.13525286132,3249.31553881401
2020.41111111111,20040.0762807915,24154.399894859,37244.9405150719,30371.5968866875,26395.357150969,26047.4632275415,18006.6652850756,5754.61867551119,3199.44682145615
2020.41388888889,19721.7041229919,23769.148257495,36637.3812535689,29878.4496153286,25969.3365657635,25626.9545335447,17719.2895065921,5664.93313988497,3150.02630301252
2020.41666666667,19406.5567464544,23387.8408841224,36036.5575605112,29390.6854770255,25547.8804725166,25210.9349694363,17434.8573530586,5576.09292004186,3101.06210022475
2020.41944444444,19094.672356617,23010.5225675504,35442.5188027394,28908.3480807044,25131.0299462406,24799.4460883918,17153.4023011444,5488.11128461942,3052.56177567669
2020.42222222222,18786.0858221177,22637.234083788,34855.308417983,28431.47614492,24718.8217726951,24392.5251830746,16874.9548237882,5401.00052054268,3004.53235058244
2020.425,18480.8287655921,22268.0123019075,34274.9640972978,27960.1036461909,24311.2885755955,23990.2054106059,16599.5424729073,5314.77195705559,2956.98031776422
2020.42777777778,18178.9296548783,21902.8902945278,33701.5179673361,27494.2599670763,23908.4589437003,23592.5159175472,16327.1899624224,5229.43599001932,2909.91165478964
2020.43055555556,17880.4138944508,21541.8974486706,33134.9967721103,27033.9700437629,23510.3575575788,23199.4819646845,16057.9192514434,5145.00210642413,2863.33183723855
2020.43333333333,17585.3039169149,21185.0595767599,32575.4220539303,26579.2545129451,23117.005315869,22811.1250514176,15791.7496274698,5061.47890906328,2817.24585207117
2020.43611111111,17293.6192744028,20832.3990275473,32022.8103332197,26130.1298577879,22728.4194608472,22427.4630395651,15528.697789465,4978.87414131984,2771.65821107023
2020.43888888889,17005.3767297206,20483.9347967652,31477.1732869365,25686.608552778,22344.6137031354,22048.5102764075,15268.7779306721,4897.19471201913,2726.57296433075
2020.44166666667,16720.5903471049,20139.6826373187,30938.5179253452,25248.6992072749,21965.5983453894,21674.2777168008,15012.0018210449,4816.4467203017,2681.99371377268
2020.44444444444,16439.2715824566,19799.6551688435,30406.8467669064,24816.4067075899,21591.3804048124,21304.7730442035,14758.3788891752,4736.63548047418,2637.92362665248
2020.44722222222,16161.4293729267,19463.8619864686,29882.1580110707,24389.7323574305,21221.9637343551,20940.0007904705,14507.916303604,4657.76554679714,2594.36544905101
2020.45,15887.070225738,19132.3097686341,29364.4457087826,23968.674016559,20857.3491424698,20579.9624542773,14260.6190534127,4579.84073817148,2551.32151931625
2020.45277777778,15616.1983061335,18805.0023838262,28853.6999305141,23553.2262375273,20497.5345112951,20224.656618048,14016.4900279961,4502.86416268714,2508.79378144073
2020.45555555556,15348.8155243512,18481.9409961027,28349.9069316705,23143.3804003602,20142.5149131606,19874.0790632708,13775.5300959253,4426.83824199983,2466.78379835445
2020.45833333333,15084.9216215313,18163.1241692923,27853.0493152219,22739.1248450708,19792.2827253062,19528.2228840944,13537.7381828175,4351.76473550382,2425.29276511542
2020.46111111111,14824.5142544702,17848.5479697601,27363.1061914317,22340.4450019022,19446.8277427225,19187.0785991061,13303.1113481343,4277.64476427087,2384.32152198118
2020.46388888889,14567.5890791412,17538.2060676433,26880.0533345677,21947.3235192011,19106.1372890273,18850.6342612062,13071.6448608372,4204.47883472744,2343.87056734551
2020.46666666667,14314.1398329113,17232.089836468,26403.8633364942,21559.7403888393,18770.1963253006,18518.8755654962,12843.332273836,4132.26686204445,2303.94007052597
2020.46944444444,14064.1584153863,16930.1884510681,25934.5057570589,21177.6730691064,18438.9875568093,18191.7859551112,12618.1654971698,4061.00819321567,2264.52988438882
2020.47222222222,13817.6349678271,16632.4889837342,25471.9472711967,20801.0966050105,18112.4915375626,17869.3467249334,12396.1348698698,3990.70162980301,2225.639557799
2020.475,13574.5579510825,16338.9764985303,25016.151812689,20429.9837459288,17790.6867726437,17551.5371231318,12177.2292304538,3921.34545032857,2187.26834788382
2020.47777777778,13334.9142219922,16049.6341437213,24567.0807145239,20064.3050605621,17473.5498182735,17238.3344504801,11961.435986013,3852.93743229543,2149.41523210011
2020.48055555556,13098.6891082185,15764.443242263,24124.692845816,19704.029049152,17161.0553795671,16929.7141574123,11748.7411798524,3785.47487382072,2112.0789200955
2020.48333333333,12865.8664814699,15483.3833803126,23688.9447452524,19349.1222529305,16853.1764059523,16625.6499387834,11539.1295576546,3718.95461486631,2075.25786535544
2020.48611111111,12636.4288290874,15206.4324937239,23259.7907510409,18999.5493607776,16549.8841842249,16326.1138263075,11332.5846321392,3653.37305805404,2038.95027662845
2020.48888888889,12410.3573239658,14933.5669524981,22837.1831273461,18655.2733130684,16251.1484292211,16031.0762786522,11129.088746195,3588.7261890541,2003.15412912302
2020.49166666667,12187.6318927901,14664.7616431665,22421.0721872059,18316.2554027006,15956.9373720941,15740.5062691744,10928.6231344687,3525.00959653643,1967.86717547039
2020.49444444444,11968.2312825698,14399.9900490859,22011.4064119276,17982.4553732969,15667.2178461871,15454.3713712882,10731.1679833939,3462.21849167681,1933.08695644816
2020.49722222222,11752.1331254593,14139.2243286355,21608.1325669725,17653.8315145836,15381.9553704993,15172.6378414605,10536.7024896514,3400.34772721036,1898.81081146058
2020.5,11653.0015719267,14019.0475807398,21419.830400953,17500.7135375398,15249.6194949508,15041.7695056267,10446.944009887,3372.20078033675,1883.39076768696
2020.50277777778,11526.5532719982,13866.1002612172,21181.6518701575,17306.8746785489,15081.7464691103,14875.8417309479,10332.8058167934,3336.17699896097,1863.55090586432
2020.50555555556,11390.9323911818,13702.1711866756,20926.8723575193,17099.466297947,14902.0046733292,14698.2066768738,10210.4986718267,3297.49610605763,1842.21411763323
2020.50833333333,11252.712387349,13535.151653355,20667.5420454865,16888.3227468448,14718.9687261026,14517.3242513074,10085.8964256325,3258.05011905033,1820.44037590361
2020.51111111111,11114.2789045178,13367.9040555455,20408.0300530125,16677.0103053666,14535.7493482093,14336.2636121412,9961.13080096799,3218.52609611475,1798.61492099223
2020.51388888889,11082.257471651,13328.5177971599,20343.7613497672,16625.1498680583,14491.5255824209,14292.3062866241,9931.58804245381,3209.72100000177,1793.97965442673
2020.51666666667,11023.372617324,13256.9018855564,20230.4063235408,16533.2196274844,14412.3378723065,14213.8581050734,9878.06923860292,3193.17353542679,1785.00009415969
2020.51944444444,10954.8528008874,13173.7396549427,20099.5244959943,16426.9763558027,14320.6457537285,14123.0756442316,9815.96221354381,3173.84391519048,1774.45579928356
2020.52222222222,10882.8466682951,13086.4103021939,19962.3760814444,16315.6109513146,14224.4650684017,14027.8664856402,9750.75929127235,3153.50285694798,1763.33950612063
2020.525,10809.5546394527,12997.5532101555,19822.9886220013,16202.4107295374,14126.6638002523,13931.0599357369,9684.42580889347,3132.78403109513,1752.00677704101
2020.52777777778,10836.9863899643,13029.6794241076,19868.1012517759,16239.936239817,14160.3055041076,13963.8881377537,9708.18855006526,3141.17541006943,1756.97831025109
2020.53055555556,10838.1370810719,13030.271898384,19865.1674674113,16238.243996473,14159.7301423498,13962.9650005797,9708.4942512375,3141.99405707618,1757.70077836075
2020.53333333333,10829.6941370236,13019.3592066968,19844.7198581452,16222.2584545451,14146.6778712871,13949.7345123917,9700.24285684565,3140.04842389367,1756.87053058718
2020.53611111111,10817.5161195849,13003.9706453626,19817.4757590449,16200.7291540026,14128.7817023709,13931.7255709027,9688.6658917136,3137.02693309898,1755.43479400455
2020.53888888889,10803.6621025014,12986.5754889884,19787.2007913254,16176.7299857225,14108.7240251429,13911.5840334671,9675.60181410809,3133.52282995028,1753.72665747111
2020.54166666667,10888.455438411,13087.6259155549,19937.3236884877,16300.1528185831,14217.2804281848,14018.2684309984,9750.74031659728,3158.5608548162,1768.01874816864
2020.54444444444,10947.4366079101,13157.703348787,20040.2369320386,16385.0442102332,14292.2211361756,14091.7971221536,9802.84013592023,3176.16313848758,1778.13850069049
2020.54722222222,10997.215559848,13216.7380450131,20126.294553985,16456.1891820332,14355.171174701,14153.4975904092,9846.72756570765,3191.12007096865,1786.77397574628
2020.55,11043.5265291347,13271.6082961872,20205.9737246868,16522.1434149757,14413.5966692915,14210.7331063651,9887.5215822294,3205.08574481394,1794.85377565131
2020.55277777778,11088.3460543862,13324.6837419015,20282.8846711787,16585.8547179883,14470.0707665527,14266.0414235212,9926.98641751428,3218.6301557169,1802.69816050992
2020.55555555556,11233.0376961161,13497.629920716,20542.1251588602,16798.6181478592,14656.6338531035,14449.6112639959,10055.7127674448,3261.10439201533,1826.77435066729
2020.55833333333,11352.2864223293,13640.0447124687,20754.8067881267,16973.3869750823,14810.0524646663,14600.4924307496,10161.7308640791,3296.2526665016,1846.73957784073
2020.56111111111,11463.0787990827,13772.3044559136,20951.9317798744,17135.4826446807,14952.4266125405,14740.477893122,10260.1985896206,3328.97866282031,1865.3473983325
2020.56388888889,11571.1851626303,13901.3286262368,21144.0283661674,17293.5053154796,15091.2637667898,14876.9706986075,10356.2655992871,3360.94868400958,1883.5339465168
2020.56666666667,11678.559127052,14029.458489149,21334.6585200842,17450.3646424021,15229.104815566,15012.4764605745,10451.6751067236,3392.72690850156,1901.61647449786
2020.56944444444,11890.3449303078,14282.8584179846,21715.5685244253,17762.8350890162,15502.8155930986,15281.9247860233,10640.3667772766,3454.7870889379,1936.70419167056
2020.57222222222,12077.0082369131,14506.1092156741,22050.4668104201,18037.7680130436,15743.785252639,15519.0845211262,10806.6379656678,3509.61997527742,1967.73617708759
2020.575,12256.3917823939,14720.6076033568,22371.8721775696,18301.7319925404,15975.2100770212,15746.8267144467,10966.4056345823,3562.38176442148,1997.60984536917
2020.57777777778,12434.4694384881,14933.5145496653,22690.6657861244,18563.6190791332,16204.8553472745,15972.8076886325,11124.9994071784,3614.79975755935,2027.29634300867
2020.58055555556,12613.2368371299,15147.2204447696,23010.4769497593,18826.3958477313,16435.313083805,16199.5832085509,11284.1993480953,3667.45142022473,2057.12070081768
2020.58333333333,12904.5873503459,15495.9435252762,23535.0660514372,19256.7135203173,16812.1200986644,16570.6146298974,11543.9431550654,3752.79879361004,2105.321410176
2020.58611111111,13171.1763904251,15814.9459541498,24014.2347484379,19649.9953586951,17156.6320340664,16909.8000023491,11781.5911515556,3831.03426119875,2149.53131801916
2020.58888888889,13432.2457562523,16127.2943123629,24482.9960172204,20034.8581781802,17493.8425808879,17241.7796942136,12014.3028986179,3907.72476096023,2192.88091900207
2020.59166666667,13694.1609266283,16440.6157443492,24952.9203251112,20420.7621660097,17832.0168960108,17574.7020547473,12247.755510381,3984.71370603799,2236.40747594292
2020.59444444444,13959.0356371568,16757.4403793397,25427.8380759693,20810.84118378,18173.8951515572,17911.2687795086,12483.8336272876,4062.61443135807,2280.45657386074
2020.59722222222,14348.940036414,17224.1409884645,26129.6866735403,21386.6802622298,18678.1124024286,18407.8369315658,12831.5293005145,4176.88038911031,2344.96163379974
2020.6,14714.6238941044,17661.760035071,26786.9794275357,21926.2228648873,19150.6949301933,18873.2140573554,13157.6146725686,4284.21004825005,2405.57524729352
2020.60277777778,15077.3785092319,18095.8112672497,27438.38783709,22461.0895259193,19619.2710752069,19334.6352815504,13481.0707583912,4390.77144901282,2465.76849188025
2020.60555555556,15444.1856301076,18534.6559682535,28096.5697452451,23001.6362748637,20092.8935282745,19801.024775101,13808.1221144465,4498.59039820536,2526.68221752083
2020.60833333333,15817.3716710513,18981.0763555757,28765.7202830457,23551.2998844016,20574.5701584894,20275.3482797839,14140.8420659176,4608.34448649432,2588.69865061401
2020.61111111111,16333.3449768467,19598.5731039838,29693.3955968841,24312.7137595034,21241.3929955753,20932.1408836517,14600.985089033,4759.70095126709,2674.13637392035
2020.61388888889,16409.609669472,19688.9850056613,29822.45937361,24420.6231070053,21337.1676480249,21026.1349266987,14668.682573183,4783.30576532,2687.70096318822
2020.61666666667,16579.8619199001,19891.9171794112,30121.5763160529,24667.7068136122,21554.6536178346,21240.0931701342,14820.1193192342,4834.21186168196,2716.65384329441
2020.61944444444,16782.6464357271,20133.7461127736,30479.2643932653,24962.7852659724,21814.1601722847,21495.4693179054,15000.5270695486,4894.60148578789,2750.96169205618
2020.62222222222,16997.2680951368,20389.6849419515,30857.9807191375,25275.1457570595,22088.8421715207,21765.8048669593,15191.4562763072,4958.47170548862,2787.24321954419
2020.625,17216.7367088386,20651.3639148533,31245.0392564723,25594.4086507586,22369.6261987999,22042.1575961001,15386.6722108899,5023.79428689238,2824.35545196748
2020.62777777778,17438.6699182894,20915.931703923,31636.1111996345,25917.0324239775,22653.4161383347,22321.4764801634,15584.0487171142,5089.87825709101,2861.90869885492
2020.63055555556,17662.2339564536,21182.3910804677,32029.6770554228,26241.7747441737,22939.1259167755,22602.6915268012,15782.8413058432,5156.48242630259,2899.76675171265
2020.63333333333,17887.1147473119,21450.3667682753,32425.1605928736,26568.1653527946,23226.3446070319,22885.3981366952,15982.7695543791,5223.51667322715,2937.87861176061
2020.63611111111,18113.1718347646,21719.6910961055,32822.3009501466,26895.992093668,23514.8870938864,23169.414265239,16183.7082299322,5290.94137219439,2976.2218111967
2020.63888888889,18340.3219763695,21990.2646567354,33220.9412558925,27225.1278693003,23804.6427566408,23454.631296809,16385.5832771542,5358.73352217443,3014.78331023761
2020.64166666667,17604.8221968269,21107.9406613262,31879.2650711324,26128.4561068108,22847.272088035,22510.911861156,15728.7914788108,5145.83907754857,2895.18818744953
2020.64444444444,17100.2724705042,20502.0367006158,30955.4006663876,25373.6583913598,22188.9077085064,21861.8769543187,15277.6721287023,4999.98493262644,2813.40347630161
2020.64722222222,16685.6366337828,20003.7535192243,30194.5247518137,24752.1478168642,21647.0837986641,21327.6989866899,14906.638827365,4880.18411976826,2746.31226377093
2020.65,16308.5432512972,19550.4290680707,29502.0227947271,24186.4658871474,21154.0341472045,20841.5930525388,14569.0491162738,4771.21308333759,2685.32500521665
2020.65277777778,15949.5132089632,19118.7663311692,28842.7024081494,23647.8021242965,20684.5493801294,20378.7150410366,14247.5534983122,4667.41048931797,2627.24543402621
2020.65555555556,15601.270565772,18700.0686172899,28203.4140167137,23125.3964889898,20229.2123558172,19929.7840903082,13935.6735713435,4566.66448683881,2570.87999835758
2020.65833333333,15261.0670724773,18291.0541260541,27579.185568239,22615.1865853712,19784.4667525566,19491.2951040535,13630.9657001556,4468.18077879709,2515.77899066249
2020.66111111111,14927.834338731,17890.4487506707,26968.0783138353,22115.5944615731,19348.9310057185,19061.886208355,13332.4834958709,4371.65396687051,2461.76901111134
2020.66388888889,14601.1271039077,17497.7222008391,26369.277829809,21625.962750351,18922.029909577,18640.9902484093,13039.8357331773,4276.95984616177,2408.77926782751
2020.66666666667,14280.7310928132,17112.6192200178,25782.385528561,21145.9741767215,18503.4865438286,18228.3341028943,12752.8365407112,4184.0411398698,2356.77701671772
2020.66944444444,13966.5175035532,16734.9857915099,25207.1557813341,20675.4361808857,18093.1336673391,17823.752814499,12471.3755379585,4092.86509039064,2305.74356076141
2020.67222222222,13658.3889315334,16364.7046865809,24643.3983920917,20214.2010281364,17690.8436795311,17427.1205556703,12195.3695794304,4003.40768471304,2255.66529423368
2020.675,13356.2593951986,16001.6717457599,24090.9426612833,19762.1364166966,17296.5027974924,17038.32517301,11924.7449788059,3915.6478808182,2206.53040369371
2020.67777777778,13060.0468729199,15645.7871083181,23549.6241594873,19319.1146727447,16910.0015149772,16657.2587724725,11659.4309160427,3829.56545466266,2158.32762234939
2020.68055555556,12769.6705573046,15296.9520533665,23019.2800090312,18885.0089162597,16531.231180467,16283.8143373772,11399.357066676,3745.14023387662,2111.04577467475
2020.68333333333,12485.0498477042,14955.0678976364,22499.7472964056,18459.6917859375,16160.0828285905,15917.8845681196,11144.4527825411,3662.35183455765,2064.67361069133
2020.68611111111,12206.1040061294,14620.0356648723,21990.8626512397,18043.03511857,15796.4468583532,15559.3615582741,10894.6468606008,3581.17959222391,2019.19975411634
2020.68888888889,11932.7520527423,14291.7560253963,21492.4622347789,17634.9099607329,15440.2130105359,15208.1367663496,10649.8675178569,3501.60255668791,1974.61268979265
2020.69166666667,11664.9127593897,13970.1293378562,21004.3818751406,17235.1867003794,15091.2704568885,14864.101098865,10410.0424459493,3423.59951293194,1930.9007681959
2020.69444444444,11402.5046832181,13655.0557264421,20526.4572469529,16843.735234965,14749.5079266776,14527.1450311931,10175.0988938468,3347.14901118825,1888.05221693882
2020.69722222222,11145.4462104963,13346.435161285,20058.5240498575,16460.4251375089,14414.8138354068,14197.1587309497,9944.96375192192,3272.22939508277,1846.05515253316
2020.7,10893.6556184082,13044.1675508012,19600.4181910744,16085.1258280659,14087.0764221061,13874.032190959,9719.56364633078,3198.81883633588,1804.89759687341
2020.70277777778,10647.0511328713,12748.1528240643,19151.9759481234,15717.7067274956,13766.1838736001,13557.6553495023,9498.82502355513,3126.89536374426,1764.56749125608
2020.70555555556,10405.5509902997,12458.2910126555,18713.0341219761,15358.0374035312,13452.0244444269,13247.9182067928,9282.67423356123,3056.43689234611,1725.0527110804
2020.70833333333,10169.0735012588,12174.4823307732,18283.4301798917,15005.9877082485,13144.4865711965,12944.7109363786,9071.03761039914,2987.42125224739,1686.34108079458
2020.71111111111,9937.53710735644,11896.6272453692,17863.002380149,14661.4278988323,12843.4589736588,12647.9239833986,8863.84154250529,2919.82621201209,1648.42038609955
2020.71388888889,9710.86044743466,11624.626553771,17451.5898976741,14324.2287602645,12548.8307592025,12357.4481669712,8661.01254883738,2853.62950735421,1611.27838940121
2020.71666666667,9488.96241463145,11358.3814500019,17049.0329316029,13994.2617108866,12260.4915131562,12073.1747684078,8462.47734354864,2788.80886369836,1574.90284198761
2020.71944444444,9271.76221387985,11097.7935902792,16655.1728065985,13671.3989022096,11978.3313850756,11794.9956157379,8268.16289880615,2725.34201883024,1539.28149640288
2020.72222222222,9059.17941872784,10842.7651568055,16269.8520675087,13355.5133125012,11702.2411704069,11522.8031638937,8077.99650509987,2663.20674524396,1504.4021187622
2020.725,8851.13401944761,10593.1989117075,15892.9145594756,13046.4788261249,11432.112380048,11256.4905627679,7891.90582157386,2602.38086714753,1470.25249813115
2020.72777777778,8647.5464789459,10348.9982585793,15524.2055121996,12744.1703171777,11167.8373146055,10995.9517305248,7709.81893264081,2542.84228289397,1436.82045904207
2020.73055555556,8448.33777843159,10110.0672928607,15163.5716091367,12448.4637183046,10909.3091257707,10741.0814139391,7531.66439369759,2484.56898142665,1404.09387067671
2020.73333333333,8253.42946269997,9876.31085153005,14810.8610531383,12159.2360859367,10656.4218749891,10491.7752462519,7357.37127559675,2427.53905897407,1372.06065623127
2020.73611111111,8062.74368417131,9647.63456124131,14465.9236278587,11876.3656613668,10409.0705887979,10247.9298018922,7186.86920726151,2371.73073561285,1340.70880224023
2020.73888888889,7876.20323786722,9423.94487679609,14128.6107468164,11599.7319195379,10167.1513033373,10009.4426402703,7020.08840900687,2317.12236666966,1310.02636500468
2020.74166666667,7693.73160399791,9205.14912741706,13798.7755085777,11329.2156239545,9930.56111478136,9776.21235598012,6856.9597328262,2263.69245973554,1280.00148021991
2020.74444444444,7515.2529802739,8991.1555521088,13476.2727386877,11064.6988685169,9699.19821809966,9548.13861717404,6697.4146924809,2211.4196858872,1250.62236934099
2020.74722222222,7340.69231391064,8781.87333460533,13160.9590296816,10806.0651174086,9472.96194426711,9325.12220255422,6541.38549303577,2160.28289135263,1221.87734621449
2020.75,7169.97533256044,8577.21263707017,12852.6927783671,10553.1992423557,9251.75279526147,9107.06503629173,6388.80505922041,2110.26110924157,1193.7548237596
2020.75277777778,7003.02856643621,8377.08462447669,12551.334212155,10305.9875490503,9035.47246931676,8893.87021304936,6239.60705517234,2061.33356631156,1166.24331784688
2020.75555555556,6839.77937835007,8181.40149714728,12256.7454227776,10064.3178110449,8824.02389312139,8685.44203038684,6093.72591179323,2013.47969554156,1139.33145447656
2020.75833333333,6680.15598383922,7990.07651277968,11968.7903879599,9828.07929185503,8617.31124334434,8481.68601029386,5951.09684455155,1966.67914310596,1113.00797379211
2020.76111111111,6524.08747137598,7803.02400847001,11687.3349922798,9597.16276631289,8415.23996755691,8282.50892024127,5811.6558713468,1920.91177598274,1087.26173445962
2020.76388888889,6371.50382192347,7620.15942191729,11412.2470463428,9371.46054042112,8217.71680384765,8087.81879302682,5675.33982979631,1876.15768981283,1062.08171819583
2020.76666666667,6222.33592012362,7441.39930375688,11143.3962959977,9150.86646143949,8024.64979156427,7897.52493755954,5542.08638648399,1832.39721197696,1037.45703158963
2020.76944444444,6076.51557384305,7266.66133849765,10880.6544398603,8935.27593643254,7835.94828981965,7711.5379578094,5411.83405437034,1789.61091065734,1013.37691132141
2020.77222222222,5933.97552426489,7095.86435541327,10623.8951356827,8724.58593997654,7651.52298612027,7529.76976164964,5284.52220118711,1747.7795984719,989.830726309407
2020.775,5794.64945651911,6928.92833989196,10372.9940067504,8518.6950220019,7471.28590514011,7352.13356993767,5160.09105840411,1706.88433690943,966.807980313607
2020.77777777778,5658.47201011165,6765.77444443181,10127.828647396,8317.50331497391,7295.150416903,7178.54392507944,5038.48173010869,1666.90644117753,944.298314777088
2020.78055555556,5525.37878143667,6606.32499123279,9888.27861932611,8120.91253210192,7123.03123677778,7008.91669119619,4919.63619432121,1627.82748042342,922.291509044777
2020.78333333333,5395.30633508325,6450.50348384482,9654.22545698114,7928.82597474844,6954.84443388083,6843.16906307608,4803.4973129164,1589.62928409052,900.777484065973
2020.78611111111,5268.19220612276,6298.2346092298,9425.55266245109,7741.14852971066,6790.50743022411,6681.21956562425,4690.00883296492,1552.29394299197,879.746303101616
2020.78888888889,5143.97490335405,6149.44424072693,9202.1457010922,7557.78666730357,6629.9390005951,6522.98805412062,4579.11538905769,1515.80381132436,859.188172966764
2020.79166666667,5022.59391275555,6004.05944110063,8983.89199690433,7378.64843941294,6473.05927240434,6368.39571450485,4470.7625059362,1480.1415092281,839.09344558514
2020.79444444444,4903.98969341818,5862.00845761723,8770.68091934942,7203.64346917999,6319.7897178811,6217.36505578714,4364.89659393813,1445.28992084871,819.452616990379
2020.79722222222,4788.10368265199,5723.22072658862,8562.40377978746,7032.68295044675,6170.05315517782,6069.81991173166,4261.46495340328,1411.23219865778,800.256329882569
2020.8,4674.87829244474,5587.62686874023,8358.95381804845,6865.67963761726,6023.77374070535,5925.68543351517,4160.41577084664,1377.95176260844,781.495373252951
2020.80277777778,4564.25690723243,5455.15868587398,8160.22619024949,6702.54783682862,5880.87696265665,5784.88808364054,4061.69811644013,1345.43230034431,763.160682607344
2020.80555555556,4456.18388221746,5325.74915799382,7966.11795689725,6543.20339757525,5741.28963493251,5647.35563030425,3965.26194211218,1313.65776806351,745.243340562395
2020.80833333333,4603.03281968743,5500.64910961615,8227.20174694867,6757.51238866429,5929.63758039727,5832.40777311533,4095.25186198439,1356.79614935503,769.896203970678
2020.81111111111,4683.11378380334,5595.91704709901,8369.14397499161,6874.09155308159,6032.20228511312,5933.06426831174,4166.02884618121,1380.3754164869,783.421407791267
2020.81388888889,4740.71244247928,5664.38045732197,8470.95833487166,6957.76388688528,6105.87870079833,6005.29757672567,4216.86872090866,1397.37357497303,793.200703591837
2020.81666666667,4790.89009925745,5724.00177265815,8559.51896127463,7030.57733110454,6170.0212767254,6068.14756883804,4261.13147755025,1412.20550780452,801.74624448787
2020.81944444444,4838.76972923396,5780.88851932606,8643.9677760335,7100.03116676398,6231.21492066151,6128.09189556806,4303.36203198458,1426.37301369081,809.913201867246
2020.82222222222,4886.09452446495,5837.11732132842,8727.41521382594,7168.67593727589,6291.70029513395,6187.33467519833,4345.10657936936,1440.38681562246,817.992816343922
2020.825,4933.45826183891,5893.39427579452,8810.91973087371,7237.37876919179,6352.23987845039,6246.62596225992,4386.89109561468,1454.4204562311,826.084352508072
2020.82777777778,4981.06375229707,5949.959516436,8894.84144871554,7306.43411662363,6413.09304780336,6306.22093741008,4428.89441133094,1468.5327777268,834.221692538063
2020.83055555556,5028.98074122159,6006.89475638736,8979.30269108134,7375.94161448671,6474.34787524315,6366.20628050479,4471.17721232421,1482.74362256074,842.416433781942
2020.83333333333,5077.23359937522,6064.22783611178,9064.34471321855,7445.93461411659,6536.03405385864,6426.61124547988,4513.75996017264,1497.05958978472,850.67256703774
2020.83611111111,5125.83113446505,6121.96824818169,9149.98105640705,7516.42389337979,6598.16133647693,6487.44546640721,4556.64940070604,1511.48279080521,858.991476601414
2020.83888888889,5174.77673891177,6180.11921091077,9236.21573271327,7587.41252306226,6660.73263288988,6548.71183888319,4599.84758946652,1526.01382771807,867.373648449022
2020.84166666667,5224.07184281101,6238.68175986377,9323.04942143329,7658.90091010862,6723.74846741754,6610.41090411807,4643.35495661751,1540.65279882093,875.819252400316
2020.84444444444,5273.71709640468,6297.65613281565,9410.48158544386,7730.88850646498,6787.20849828001,6672.54234391247,4687.17134809908,1555.39963645565,884.32834179818
2020.84722222222,5323.7127810723,6357.04223665095,9498.5111955973,7803.37438597469,6851.11203589777,6735.10549151917,4731.29637885359,1570.25421883973,892.900922686815
2020.85,5374.0589505373,6416.83979613886,9587.13697143689,7876.35743012547,6915.45821276444,6798.09949966572,4775.72954553712,1585.21640123161,901.536975682351
2020.85277777778,5424.75549194033,6477.04840841882,9676.3574692297,7949.83639514876,6980.24604654716,6861.52340408876,4820.47026962209,1600.2860282815,910.236466094951
2020.85555555556,5475.80214759119,6537.66755440991,9766.17110475239,8023.80992719584,7045.47445545504,6925.37613964484,4865.51790624385,1615.46293337365,918.999345867447
2020.85833333333,5527.1985274724,6598.69660136086,9856.5761589153,8098.27656567044,7111.14226222383,6989.65654516911,4910.87174626529,1630.74693699755,927.825554378801
2020.86111111111,5578.94411847196,6660.13480346364,9947.57077784793,8173.23474341788,7177.24819479135,7054.36336497737,4956.53101679414,1646.13784559186,936.715019081028
2020.86388888889,5631.03828500179,6721.98129502959,10039.1529636007,8248.68277858459,7243.79087909911,7119.49524212953,5002.49487465243,1661.63544636611,945.667653517176
2020.86666666667,5683.48027854362,6784.235094377,10131.3205751693,8324.61887719616,7310.76884157033,7185.05072157618,5048.76240953411,1677.23950899196,954.683359008437
2020.86944444444,5736.26923854107,6846.8950998427,10224.0713208031,8401.04112725857,7378.18050379794,7251.02824514374,5095.33263976098,1692.94978268121,963.762023529076
2020.87222222222,5789.40419487365,6909.96008847851,10317.4027530647,8477.94749543169,7446.02417959914,7317.42614884989,5142.20451028019,1708.76599486384,972.903521355173
2020.875,5842.88407112823,6973.42871638827,10411.3122655647,8555.33582525021,7514.29807351795,7384.24266164325,5189.37689209791,1724.68785098246,982.107713246588
2020.87777777778,5896.70768099125,7037.29951256251,10505.7970830479,8633.20382850067,7583.00027310916,7451.4758976516,5236.84857562,1740.71503029863,991.37444427725
2020.88055555556,5950.87373446185,7101.57088350227,10600.8542628787,8711.54908775969,7652.12875146248,7519.12385898133,5284.61827395264,1756.84718843567,1000.7035454483
2020.88333333333,6005.38083598859,7166.2411098164,10696.4806882677,8790.36905059985,7721.681362131,7587.18443065261,5332.6846188679,1773.08395514854,1010.09483253634
2020.88611111111,6060.22748461589,7231.30834530328,10792.6730644256,8869.6610264195,7791.65583647984,7655.65537800484,5381.04615900864,1789.42493355119,1019.54810573975
2020.88888888889,6115.41207527541,7296.77061749295,10889.4279164396,8949.42218485444,7862.04978248985,7724.53434560369,5429.7013595139,1805.86970034348,1029.06314987081
2020.89166666667,7386.93100320125,8811.91893202184,13149.2769277281,10806.0802413188,9493.85325520269,9327.53597137184,6556.51615160591,2180.56598544576,1243.05588244771
2020.89444444444,8364.97619787161,9977.47681765791,14886.8192946844,12234.1751615161,10749.1293080021,10560.4956186379,7423.5393268066,2469.19429095508,1407.90020127298
2020.89722222222,9350.76181149685,11152.2706574467,16637.3501146813,13673.2612463567,12014.1401998639,11802.9511795355,8297.45848420558,2760.29786551984,1574.16463968288
2020.9,10423.8419528266,12431.0362973192,18542.0999306405,15239.3806576087,13390.8971100165,13155.1307424016,9248.7452611647,3077.30934960849,1755.23927724045
2020.90277777778,11684.1292978642,13932.7747526252,20778.3476055686,17078.260334745,15007.5194690956,14742.902671926,10365.9423287852,3449.70799203018,1967.96741523435
2020.90555555556,13067.322750791,15580.8301828247,23231.4894852655,19095.861282209,16781.4098797009,16485.1186557693,11592.0956511474,3858.61998764686,2201.5775827842
2020.90833333333,14606.1558595079,17414.1343310318,25959.2182828649,21339.7031036643,18754.3927350513,18422.8727939341,12956.195972285,4313.74796217586,2461.62164038077
2020.91111111111,16322.7147537934,19458.920689715,29000.184068533,23841.7064406557,20954.5955982336,20583.8062433237,14477.8094717115,4821.68156013239,2751.87388014863
2020.91388888889,18238.1876289004,21740.333973373,32391.2817813754,26632.3961807105,23408.9352217758,22994.3764136605,16175.707012007,5388.76743281035,3075.970929749
2020.91666666667,20499.3797446956,24433.0912238818,36391.919146763,29925.2946831224,26305.2430951642,25839.1265533621,18179.9390435534,6058.44639496237,3458.74957021832
2020.91944444444,19526.0449516103,23273.8935550811,34656.7883050159,28503.0167285243,25056.0183669452,24611.4546495236,17319.0717843802,5774.00415201529,3296.24156114519
2020.92222222222,19294.7611543411,22997.5954777092,34235.7370017436,28160.512407416,24756.4140403085,24316.7439982071,17114.5491864094,5707.99399326623,3258.72109107288
2020.925,19316.4860673146,23022.163725308,34262.3489037289,28185.9113974878,24780.46762436,24340.0166949619,17133.7915203146,5716.48853076208,3263.86464108372
2020.92777777778,19424.2039242395,23148.8734335655,34440.7497431896,28336.0691010131,24914.3550252816,24471.2066159605,17229.0255908114,5750.31155124173,3283.53521982979
2020.93055555556,19560.8443284465,23309.8443087977,34669.8438608933,28527.8933076169,25084.9915093823,24638.51459418,17349.7401622385,5792.6516089422,3308.10859423146
2020.93333333333,19706.8745339679,23481.8595619604,34915.0380306892,28732.9500540198,25267.3594083609,24817.3629701355,17478.6442150165,5837.75407984926,3334.28694093464
2020.93611111111,19855.5793460742,23656.9490160407,35164.4514086303,28941.4759251022,25452.8623724467,24999.3062551616,17609.7962530892,5883.64243067056,3360.93519274899
2020.93888888889,20004.6210283832,23832.3472784328,35413.9630210371,29150.0867021408,25638.5161646457,25181.4122216079,17741.1334457082,5929.63124091757,3387.65802747122
2020.94166666667,20153.1574101908,24007.0655529999,35662.104145077,29357.5780245808,25823.2552803701,25362.6336086073,17871.9188594387,5975.47625634476,3414.31333472208
2020.94444444444,20300.8578021326,24180.7212571648,35908.3127618327,29563.490248515,26006.6704501046,25542.567885295,18001.8689032147,6021.08386213213,3440.84578342014
2020.94722222222,19402.0464430552,23109.3992291963,34307.4451154128,28248.9442047921,24852.0226168764,24408.1575989902,17205.2645011138,5756.86369416577,3290.05198606596
2020.95,18757.1839768471,22340.0359752669,33155.320618248,27303.2124984653,24021.8945050874,23592.5516614726,16633.0974921581,5567.44290784317,3182.10481287832
2020.95277777778,18214.8919683141,21692.6653215904,32184.9018945225,26506.6965403939,23323.009383219,22905.876580435,16151.5901446578,5408.16565382985,3091.42156246966
2020.95555555556,17718.1834601733,21099.5586211178,31295.6697732676,25776.7271445588,22682.5995623033,22276.647033283,15710.3763390307,5262.21949322652,3008.36681121986
2020.95833333333,17245.5245406301,20535.1326999196,30449.6350241547,25082.0666455511,22073.1652842338,21677.8479111785,15290.4257568304,5123.25479092717,2929.29927781158
2020.96111111111,16788.6993386983,19989.6314542151,29632.2935688911,24410.7985550768,21484.2145217556,21099.1718734513,14884.4824766848,4988.85413744634,2852.83132241693
2020.96388888889,16344.4961115942,19459.2429979106,28837.9638440256,23758.2656758787,20911.6465514835,20536.5901604244,14489.7156115071,4858.07807652296,2778.42288105865
2020.96666666667,15911.5841557313,18942.3882506278,28064.2793316385,23122.5382467084,20353.7628049026,19988.4338713211,14104.9574835977,4730.54258091768,2705.85276681495
2020.96944444444,15489.3404968475,18438.3271217346,27310.1195218525,22502.711008483,19809.7676450128,19453.9212187101,13729.6655560452,4606.07224234953,2635.01980604629
2020.97222222222,15077.409046196,17946.6351248055,26574.8326049041,21898.2633398055,19279.2048881018,18932.6039922324,13363.5322316895,4484.56989607226,2565.86801041992
2020.975,14675.5349491493,17467.0069253585,25857.9435680318,21308.818978844,18761.7460893911,18424.1595659004,13006.3382161399,4365.96762974203,2498.35841054503
2020.97777777778,14283.5023371,16999.1826841111,25159.0447424213,20734.0559679322,18257.111097947,17928.312836442,12657.8974718989,4250.20840005558,2432.45845209666
2020.98055555556,13901.1109915245,16542.92056926,24477.7549907401,20173.6731279803,17765.0384069601,17444.8070813308,12318.036672264,4137.23919541615,2368.13802617576
2020.98333333333,13528.1673999318,16097.9863537463,23813.7044359753,19627.3775184557,17285.2739963587,16973.3929738525,11986.5874027301,4027.00838471168,2305.3679117473
2020.98611111111,13164.4816657426,15664.1498749629,23166.5292455082,19094.8802408055,16817.5675564728,16513.824869463,11663.3835788754,3919.46492521003,2244.11929329075
2020.98888888889,12809.8662228396,15241.183643713,22535.8697380893,18575.8949243764,16361.6710811973,16065.8594090333,11348.2604359463,3814.55800834849,2184.36353659529
2020.99166666667,12464.1354238727,14828.8624504323,21921.3699260269,18070.1374059624,15917.3385303237,15629.2551784881,11041.0542860074,3712.23698752859,2126.07213154239
2020.99444444444,12127.1054195463,14426.9632941987,21322.6775263676,17577.3257923349,15484.3258405805,15203.7727123301,10741.6025185264,3612.45138419147,2069.21668375285
2020.99722222222,11798.5941557639,14035.2654317028,20739.4441323136,17097.1806537908,15062.3910616277,14789.1746214169,10449.743691583,3515.15092442867,2013.76892672925
2021,11478.421416318,13653.550464359,20171.3254237168,16629.4252487498,14651.2945270667,14385.2257562807,10165.3176503256,3420.28558447211,1959.70074133317
2021.00277777778,11166.4088836604,13281.6024342165,19617.9813737724,16173.7857439838,14250.7990278381,13991.693373733,9888.16564957083,3327.8056374635,1906.98417768242
2021.00555555556,10862.3802064291,12919.2079180057,19079.0764374385,15729.9914183112,13860.6699761456,13608.3472949302,9618.13047186258,3237.66169867342,1855.59147742865
2021.00833333333,10566.161068642,12566.1561155996,18554.279717705,15297.7748462603,13480.6755559093,13234.9600508385,9355.0565378049,3149.80476814333,1805.49509551324
2021.01111111111,10277.5792579733,12222.2389317206,18043.2651096956,14876.8720614,13110.5868587394,12871.3070139961,9098.79000761131,3064.18627040935,1756.66772097113
2021.01388888889,9996.46473161405,11887.2510506411,17545.7114239149,14467.0227001763,12750.1780055556,12517.166516608,8849.17887365213,2980.75809123191,1709.08229656232
2021.01666666667,9722.64967874746,11560.9900039473,17061.3024903193,14067.9701274571,12399.2262544055,12172.3199554487,8606.07304412901,2899.4726113611,1662.71203711564
2021.01944444444,9455.96857898015,11243.2562315356,16589.7272449125,13679.4615450746,12057.5120951933,11836.5518842122,8369.32441815741,2820.2827374126,1617.53044652769
2021.02222222222,9196.25825627377,10933.8531360389,16130.6798004623,13301.2480846296,11724.8193320741,11509.6500940081,8138.78695260904,2743.14192995042,1573.51133339687
2021.025,8943.35792807458,10632.5871308877,15683.8595027991,12933.0848857659,11400.9351542758,11191.4056827133,7914.31672110041,2668.00422888358,1530.62882529722
2021.02777777778,8697.10924945846,10339.2676822079,15248.9709740129,12574.7311610496,11085.6501960934,10881.6131138809,7695.77196553116,2594.82427629058,1488.85738171441
2021.03055555556,8457.35635220406,10053.7073447625,14825.7241437382,12225.9502485211,10778.7585867773,10580.0702658882,7483.01314058067,2523.55733678904,1448.17180567861
2021.03333333333,8223.94587878439,9775.72179214261,14413.8342695933,11886.5096529109,10480.0579910102,10286.5784719808,7275.90295157116,2454.1593155699,1408.54725413822
2021.03611111111,7996.72701132924,9505.12984142218,14013.0219477378,11556.1810764482,10189.3496406322,10000.9425518457,7074.30638609964,2386.58677421627,1369.95924712441
2021.03888888889,7775.55149565979,9241.75347249136,13623.0131144179,11234.7404401232,9906.43835824965,9722.97083531216,6878.09073983168,2320.79694442626,1332.38367576068
2021.04166666667,7560.27366053572,8985.41784229142,13243.5390392862,10921.9678962044,9631.13257332408,9452.47517875538,6687.12563683874,2256.74773975795,1295.79680917405
2021.04444444444,7350.75043228436,8735.95129417717,12874.336311212,10617.6478327561,9363.24433131064,9189.27097474418,6501.28304484696,2194.3977655122,1260.17530036605
2021.04722222222,7146.84134500375,8493.18536263671,12515.1468172339,10321.5688708449,9102.58929638305,8933.17715544686,6320.43728575111,2133.70632686651,1225.49619110156
2021.05,6948.40854654716,8256.95477360113,12165.7177152523,10033.523855076,8848.98674825145,8684.01619027984,6144.46504173184,2074.63343536953,1191.7369158736
2021.05277777778,6755.3168005071,8027.09744057792,11825.8014010083,9753.30983805309,8602.25957355024,8441.6140782564,5973.24535729876,2017.1398139026,1158.87530500077
2021.05555555556,6567.43348442326,7803.45445684224,11495.1554698532,9480.72805930993,8362.23425224511,8205.80033546571,5806.65963756589,1961.18690021037,1126.88958691296
2021.05833333333,6384.62858444147,7585.87008391893,11173.5426737753,9215.58391922414,8128.74083948054,7976.40797808671,5644.59164305035,1906.73684909897,1095.75838967917
2021.06111111111,6206.77468665072,7374.19173658608,10860.7308741148,8957.68694838353,7901.61294326349,7753.27350131708,5486.92748126964,1853.7525333955,1065.46074182921
2021.06388888889,6033.74696532288,7168.26996462757,10556.4929903666,8706.85077284199,7680.68769835409,7536.23685457372,5333.55559539748,1802.19754375872,1035.97607251932
2021.06666666667,5865.42316827551,6967.95843155782,10260.6069454448,8462.89307566904,7465.80573671021,7325.14141329925,5184.36675022381,1752.03618742656,1007.28421108932
2021.06944444444,5701.68359957268,6773.1138905367,9972.85560775568,8225.63555516726,7256.81115481101,7119.83394768779,5039.25401564993,1703.23348598152,979.365386056866
2021.07222222222,5542.41109977173,6583.59615768701,9693.02673040419,7994.90388010458,7053.55147816261,6920.16458862328,4898.11274793636,1655.75517221134,952.200223592164
2021.075,5387.49102391679,6399.26808301995,9420.9128878363,7770.52764228201,6855.87762326976,6725.98679110492,4760.84056890793,1609.56768613785,925.769745514275
2021.07777777778,5236.81121747156,6219.99551916754,9156.31141020196,7552.34030673467,6663.64385733785,6537.15729541611,4627.33734330793,1564.63817028323,900.055366848074
2021.08055555556,5090.2619903753,6045.64728811329,8899.0243157039,7340.17915984125,6476.70775595221,6353.53608627685,4497.50515448132,1520.93446423888,875.038892978713
2021.08333333333,4947.73608939787,5876.09514610475,8648.85824118113,7133.88525559714,6294.9301589647,6174.98635020351,4371.2482785559,1478.42509859851,850.702516438497
2021.08611111111,4809.12866896004,5711.21374692359,8405.62437116023,6933.30336028741,6118.17512480161,6001.37443128455,4248.47315727909,1437.07928831344,827.028813359014
2021.08888888889,4674.33726057748,5550.8806036813,8169.13836559264,6738.28189577853,5946.30988339252,5832.56978556755,4129.08836965838,1396.86692552469,804.000739619549
2021.09166666667,4543.26174107746,5394.9760492999,7939.22028648229,6548.67288163142,5779.20478790534,5668.44493423872,4013.00460254342,1357.75857192319,781.60162672088
2021.09444444444,4415.80429972921,5243.38319582938,7715.69452359438,6364.33187622319,5616.73326545989,5508.87541576404,3900.13462027871,1319.72545068621,759.815177411885
2021.09722222222,4291.86940442041,5095.98789274566,7498.3897194242,6185.11791705122,5458.77176697998,5353.7397371494,3790.39323354736,1282.73943803526,738.625461094656
2021.1,4171.36376700435,4952.6786843646,7287.13869359241,6010.8934603799,5305.19971633249,5202.91932446583,3683.6972675181,1246.77305445777,718.01690903224
2021.10277777778,4054.19630793445,4813.34676650023,7081.7783668226,5841.52432037833,5155.89945889094,5056.2984727757,3579.96552939996,1211.79945563216,697.974309381607
2021.10555555556,3940.27812029536,4677.88594248767,6882.14968464572,5676.87960788602,5010.75620965102,4913.76429558579,3479.118775502,1177.79242309334,678.48280207297
2021.10833333333,3829.52243333272,4546.19257868382,6688.0975409663,5516.83166893285,4869.65800101596,4775.206673944,3381.07967788847,1144.72635467338,659.527873555251
2021.11111111111,3721.84457557682,4418.16555955184,6499.47070161551,5361.25602312988,4732.49563036052,4640.5182052879,3285.77279071328,1112.57625474946,641.095351426122
2021.11388888889,3823.86683387305,4538.77606478759,6676.65036074312,5507.23048670841,4861.57507993775,4766.90726228104,3375.25623982482,1142.90983769923,658.726596474937
2021.11666666667,3871.22510828031,4594.63593315701,6758.55242357542,5574.71784684154,4921.34565264858,4825.32468021227,3416.6478590086,1157.00564253115,666.973858253683
2021.11944444444,3899.73984371245,4628.18438981621,6807.60964006616,5615.15562503528,4957.22499371719,4860.31118715543,3441.46422601691,1165.5073204906,671.986148960404
2021.12222222222,3921.77224288086,4654.06366431349,6845.36931449878,5646.29590478686,4984.89004280197,4887.24045844617,3460.58312627882,1172.08859936893,675.886689426508
2021.125,3941.58814688189,4677.32499424266,6879.26857422269,5674.26479416997,5009.75221883742,4911.41906795845,3477.75885164342,1178.01725601864,679.408702972333
2021.12777777778,3960.65985266259,4699.71047405658,6911.87431953341,5701.17567966891,5033.67922417925,4934.67850702178,3494.28682481105,1183.73052285432,682.805409648604
2021.13055555556,3979.49565721667,4721.82053632826,6944.07218433104,5727.75693532881,5057.31529440318,4957.65054147149,3510.61366787428,1189.37893489102,686.164235865746
2021.13333333333,3998.27116454515,4743.86178319211,6976.1672650802,5754.25891777508,5080.88219597704,4980.55267964536,3526.89298638661,1195.01408337584,689.515324281565
2021.13611111111,4017.0471112134,4765.90498476472,7008.26412276384,5780.76703392238,5104.4557845947,5003.4593574441,3543.17723624939,1200.65343570378,692.869015378312
2021.13888888889,4035.84452069179,4787.9740753528,7040.39800481346,5807.30979685372,5128.06150897664,5026.39558217666,3559.48396349154,1206.30271145117,696.228798861137
2021.14166666667,4054.6706349454,4810.07684524507,7072.58017784396,5833.89611449944,5151.70739932749,5049.36927681638,3575.81867286892,1211.96360332469,699.595791340462
2021.14444444444,4073.52786633637,4832.21552046173,7104.81359943379,5860.52815166758,5175.39546588285,5072.38245542325,3592.18272193052,1217.63643800711,702.970285769648
2021.14722222222,4092.41689310714,4854.39040630917,7137.09834201755,5887.20576229247,5199.12563913826,5095.435086351,3608.57604466949,1223.32109023119,706.352288373294
2021.15,4111.33773490907,4876.60113970857,7169.43347332598,5913.92801380516,5222.89713246052,5118.5264286751,3624.99809001555,1229.01729432481,709.741705130322
2021.15277777778,4130.29013121334,4898.84711781034,7201.81770991159,5940.69370935963,5246.70891328743,5141.65549494999,3641.44814415057,1234.72474836674,713.138406759225
2021.15555555556,4149.27367859609,4921.1276433627,7234.24964483075,5967.50156532449,5270.55986575834,5164.82121157522,3657.92544031836,1240.44314734996,716.542251460329
2021.15833333333,4168.28788406861,4943.44197308295,7266.72782689497,5994.35027059925,5294.44884639265,5188.02247431156,3674.42919550004,1246.17219237024,719.953092900199
2021.16111111111,4187.33218866425,4965.78933313481,7299.25078781139,6021.23850567963,5318.37470264569,5211.258167324,3690.95862204583,1251.91159198763,723.370782999818
2021.16388888889,4206.40598003657,4988.16892370975,7331.81705081979,6048.164948173,5342.33627857414,5234.52716946343,3707.51293083117,1257.6610612539,726.795172871132
2021.16666666667,4225.50860061609,5010.57992020559,7364.42513266034,6075.12827384884,5366.33241604483,5257.82835603979,3724.09133162346,1263.42032023049,730.226113082977
2021.16944444444,4244.63935366591,5033.02147350756,7397.07354311095,6102.12715627603,5390.36195443386,5281.16059897941,3740.69303259455,1269.18909256646,733.663453680054
2021.17222222222,4263.79750812122,5055.49271017001,7429.76078365886,6129.16026604862,5414.42372985026,5304.52276639543,3757.31723962407,1274.96710428398,737.107044110769
2021.175,4282.98230258753,5077.99273271871,7462.48534591215,6156.22626991609,5438.51657424771,5327.91372194761,3773.96315559913,1280.75408278242,740.556733123374
2021.17777777778,4302.19294868812,5100.52062010518,7495.2457100013,6183.32382991102,5462.63931455055,5351.33232413605,3790.62997976795,1286.54975603364,744.01236865407
2021.18055555556,4321.428633879,5123.07542828746,7528.04034308045,6210.4516024991,5486.79077183542,5374.7774255894,3807.3169071574,1292.35385193396,747.473797716934
2021.18333333333,4340.68852381777,5145.65619090009,7560.86769797774,6237.60823775792,5510.96976057952,5398.24787237483,3824.02312805046,1298.16609778163,750.940866299796
2021.18611111111,4359.97176435498,5168.26191997792,7593.72621201447,6264.79237858753,5535.17508797534,5421.74250334414,3840.74782751669,1303.98621985364,754.413419267708
2021.18888888889,4379.27748320503,5190.89160670456,7626.61430599689,6292.00265995595,5559.40555330812,5445.26014952312,3857.49018498927,1309.81394306119,757.89130027444
2021.19166666667,4398.60479134505,5213.54422216265,7659.53038337554,6319.23770818309,5583.65994739128,5468.79963354787,3874.24937388308,1315.64899066721,761.37435168189
2021.19444444444,4417.95278418287,5236.21871806875,7692.47282956128,6346.49614026685,5607.93705205512,5492.35976914955,3891.02456124968,1321.49108405325,764.862414487009
2021.19722222222,5566.66505819299,6595.93060479944,9689.62514344203,7993.43423656475,7063.74383889956,6917.94210458207,4900.78402878382,1664.21920523315,963.646825314362
2021.2,6437.34221748092,7626.6768390295,11203.0566272213,9241.88119652421,8167.38420185891,7998.52771060083,5666.39321645348,1924.32307997079,1114.51003586237
2021.20277777778,7332.34714589929,8686.2466967859,12758.2715988007,10525.0248660415,9301.73296282671,9109.1182727949,6453.40760908785,2191.83062916255,1269.67226565439
2021.20555555556,8327.78378666727,9864.66824270232,14487.4353654498,11951.8719644155,10563.1705836964,10344.1026010524,7328.70451281354,2489.44712760706,1442.3108239368
2021.20833333333,9452.66091055913,11196.2385278278,16440.7829768102,13563.9068204524,11988.4039780934,11739.4233526711,8317.79041823724,2825.8635496156,1637.4748940369
2021.21111111111,10727.5305516495,12705.2396735714,18653.7607665919,15390.4444406334,13603.3894011801,13320.494888946,9438.73486065476,3207.26052948429,1858.75815269877
2021.21388888889,12172.9849504091,14415.988243554,21161.7779548842,17460.7998790517,15434.0913037123,15112.7415023423,10709.637612071,3639.84294519067,2109.76936208726
2021.21666666667,13811.7049908633,16355.2549780975,24003.743503744,19807.2126049592,17509.0708435636,17144.1337680667,12150.431158187,4130.45503984097,2394.48957229907
2021.21944444444,15669.1477239831,18553.073721815,27223.2278981867,22465.8143432943,19860.3457463784,19446.0322852161,13783.4865049611,4686.79080213348,2717.39453763926
2021.22222222222,17773.9661127426,21043.2322064476,30869.1479048985,25477.206415191,22523.9058400585,22053.6947687479,15633.9830210197,5317.52560684784,3083.53147606765
2021.225,20158.396161098,23863.7224415519,34996.3808099203,28886.9827099256,25540.1816477393,25006.7379429729,17730.2493420623,6032.43968486063,3498.59112631309
2021.22777777778,22858.6618070422,27057.2098695604,39666.3926264454,32746.2689469793,28954.528855705,28349.6159971816,20104.1198776522,6842.54898370068,3968.98414223297
2021.23055555556,21518.2254778235,25471.8347399635,37332.7002170464,30825.0468236632,27256.7711948943,26686.7789683384,18928.2430514933,6445.17897018065,3738.28660612427
2021.23333333333,21098.1540500223,24973.9585144577,36592.2138360679,30218.1264646211,26721.6866351388,26162.524897322,18559.7011251802,6322.22619181502,3667.10936174107
2021.23611111111,20995.5757048764,24851.0406375273,36400.9877413302,30064.3441101479,26587.5648605419,26030.9317195038,18469.6268431096,6293.94894594271,3651.00515211644
2021.23888888889,21001.7267485954,24856.4031867738,36397.5543254805,30065.4645427275,26590.5869606153,26033.6543013169,18474.8356575723,6298.0777728341,3653.77754683437
2021.24166666667,21044.2932929057,24904.632432417,36456.7221336149,30118.179339328,26639.3505973834,26081.1872016238,18511.8562652193,6313.03342012028,3662.87592781807
2021.24444444444,21098.2038336577,24966.1362515216,36535.1048793668,30186.6841362578,26702.1669036655,26142.498600321,18558.6810207612,6331.33321938745,3673.94386162704
2021.24722222222,21154.7460006222,25030.6470715499,36617.64853264,30258.558027031,26768.0343852767,26206.8143337781,18607.6678807042,6350.37922978176,3685.46569216039
2021.25,21210.8741128061,25094.5881699011,36699.1162034706,30329.4829364419,26833.121831338,26270.3816133622,18656.1539620456,6369.2665673446,3696.91122677837
2021.25277777778,21265.5068543587,25156.6999885491,36777.6747374105,30397.9496481521,26896.0848693706,26331.882915214,18703.2031654389,6387.67730090396,3708.09249209896
2021.25555555556,21318.2451908301,25216.5259046829,36852.6720961119,30463.4231017949,26956.4425506634,26390.8463015083,18748.4788468151,6405.49704614562,3718.94060386565
2021.25833333333,20291.6867385711,24001.3683224075,35066.3275504467,28990.4066184044,25654.8343013301,25116.2511400777,17846.0551345077,6099.55629863562,3541.53086910296
2021.26111111111,19531.0239638014,23100.2040109331,33739.3398144787,27896.406594171,24688.6705575489,24170.1312633767,17176.6921893108,5872.93922477424,3410.27751378891
2021.26388888889,18881.7947985483,22330.6852085135,32605.4331545634,26961.5709281941,23863.305819708,23361.8808860499,16605.0216289963,5679.48674659259,3298.31567600655
2021.26666666667,18285.0732503284,21623.2672263648,31563.0234764254,26102.0230541693,23104.4739950741,22618.7763483033,16079.3973491138,5501.58979893424,3195.39289870775
2021.26944444444,17718.2298080599,20951.2510889638,30573.0834488298,25285.5480237852,22383.649013175,21912.8842694028,15579.988044054,5332.49113241238,3097.57275331658
2021.27222222222,17172.4286490061,20304.2151757927,29620.3547686398,24499.5643457089,21689.6898054102,21233.2951044958,15099.0557801048,5169.5592609296,3003.32103501817
2021.275,16644.0788086898,19677.9243467652,28698.6153722146,23738.9552762398,21018.0663787688,20575.5730623109,14633.4616816686,5011.73178877924,2912.0177059561
2021.27777777778,16131.5860612161,19070.4970390106,27805.0823151818,23001.4445386374,20366.7651954355,19937.7466071832,14181.8174077621,4858.54339877395,2823.39096285753
2021.28055555556,15634.1186486535,18480.9493468798,26938.2850263279,22285.8388164445,19734.7327398448,19318.7843821984,13743.4022600788,4709.75626136814,2737.30193513306
2021.28333333333,15151.1382086288,17908.6420524448,26097.257202613,21591.3598648323,19121.2838762586,18718.0158514581,13317.7514927362,4565.2195110845,2653.66274848769
2021.28611111111,14682.2214844936,17353.0706826623,25281.2298781159,20917.3908640885,18525.8770288857,18134.9111318768,12904.4998431921,4424.81584271755,2572.40533384247
2021.28888888889,14226.9925473487,16813.7858774033,24489.5150095332,20263.3802755507,17948.0288610626,17568.9974234092,12503.3221314892,4288.44124647635,2493.46955372232
2021.29166666667,13785.0970761561,16290.3633045771,23721.4615377683,19628.80562946,17387.2820588718,17019.8274449232,12113.9108322791,4155.99738361301,2416.79870714961
2021.29444444444,13356.1923886886,15782.3921361355,22976.4387319462,19013.1598236112,16843.1930700553,16486.9674029529,11735.9674769868,4027.38860902899,2342.3377544634
2021.29722222222,12939.9439060615,15289.4710152422,22253.830342113,18415.946422541,16315.327851179,15969.9928233922,11369.1997358729,3902.52105164611,2270.03275097698
2021.3,12536.0236669368,14811.2064413099,21553.0324029464,17836.6779214243,15803.2602514375,15468.4869551373,11013.3202687369,3781.3022120571,2199.8305897451
2021.30277777778,12144.1098037172,14347.212246923,20873.4525866345,17274.8752995793,15306.571558498,14982.0403174999,10668.046409708,3663.6408680106,2131.67892948726
2021.30555555556,11763.8863551832,13897.1094450371,20214.5100776584,16730.0680019563,14824.8504370749,14510.2506340869,10333.1001300174,3549.44707440518,2065.52618195582
2021.30833333333,11395.0432078078,13460.5262063824,19575.6356165796,16201.7940571281,14357.6929994685,14052.7228974197,10008.2080964781,3438.63219570551,2001.32152148729
2021.31111111111,11037.2760855154,13037.0978768281,18956.2715813201,15689.600223064,13904.7029096527,13609.0694676111,9693.10175640771,3331.10894721887,1939.01490219002
2021.31388888889,10690.286556315,12626.4670012387,18355.8720586337,15193.0421214109,13465.4914844101,13178.9101691166,9387.5174228889,3226.79143635718,1878.5570769828
2021.31666666667,10353.7820429351,12228.2833418057,17773.9028903732,14711.6843473001,13039.6777786314,12761.8723727481,9091.19635078289,3125.59520061756,1819.89961611975
2021.31944444444,10027.4758318938,11842.2038868935,17209.8416910955,14245.1005515649,12626.888650903,12357.591059002,8803.8848002717,3027.43724116427,1762.99492420401
2021.32222222222,9711.0870783931,11467.8928494261,16663.1778378788,13792.8734958821,12226.7588089202,11965.7088621298,8525.33408716948,2932.23605172395,1707.7962552623
2021.325,9404.34080570583,11105.0216549204,16133.4124346583,13354.5950826092,11838.930835543,11585.8760956528,8255.30062021086,2839.91164283058,1654.25772570552
2021.32777777778,9106.96789834264,10753.2689196409,15620.0582537293,12929.8663614469,11463.0551967617,11217.7507604862,7993.54592590653,2750.3855615859,1602.33432512495
2021.33055555556,8818.70508863068,10412.3204194548,15122.6396570113,12518.297515092,11098.7902329669,10860.9985369779,7739.83666170752,2663.58090715419,1551.98192494018
2021.33333333333,8539.29493655706,10081.8690499871,14640.6924994768,12119.5078259501,10745.8021349296,10515.292762188,7493.94461827218,2579.42234223179,1503.15728495533
2021.33611111111,8268.48580288588,9761.61477865735,14173.7640169231,11733.1256258503,10403.7649058492,10180.3143936978,7255.64671164183,2497.83610074003,1455.81805790503
2021.33888888889,8006.03181567301,9451.26458916278,13721.4127000455,11358.7882305618,10072.3603107636,9855.75196118249,7024.7249661194,2418.74999199154,1409.92279208782
2021.34166666667,7751.69283039045,9150.5324189515,13283.2081565668,10996.1418607749,9751.27781454697,9541.30150691811,6800.96648862431,2342.09340157721,1365.43093219492
2021.34444444444,7505.2343839381,8859.13909020974,12858.7309629924,10644.8415510782,9440.21450964351,9236.66651632337,6584.16343526812,2267.79728921645,1322.30281844798
2021.34722222222,7266.42764286892,8576.81223487186,12447.5725073987,10304.5510483373,9138.8750346159,8941.55783957032,6374.11297086252,2195.79418380617,1280.499684162
2021.35,7035.04934618771,8303.28621414491,12049.3348245141,9974.94270076522,8846.97148451324,8655.6936052295,6170.61722203647,2126.0181758963,1239.98365185023
2021.35277777778,6810.88174310638,8038.30203302475,11663.630424225,9655.69733886516,8564.2233139951,8378.79912684972,5973.48322460237,2058.40490781052,1200.71772798597
2021.35555555556,6593.71252615134,7781.60725026526,11290.0821145241,9346.5041493269,8290.35723408151,8110.60680330954,5782.52286577439,1992.891561621,1162.66579653364
2021.35833333333,6383.33476002409,7532.95588424677,10928.3228198169,9047.06054286174,8025.10710333519,7850.85601371661,5597.55282180491,1929.41684517634,1125.79261135785
2021.36111111111,6179.54680661497,7292.10831517411,10577.9953954132,8757.07201687706,7768.21381422175,7599.29300757384,5418.39449156882,1867.92097637127,1090.06378761471
2021.36388888889,5982.15224656418,7058.83118401792,10238.7524389484,8476.25201380961,7519.42517533667,7355.67079087637,5244.87392658994,1808.34566583633,1055.44579222478
2021.36666666667,5790.9597977544,6832.89728859632,9910.25609941075,8204.32177586381,7278.49579013339,7119.74900875206,5076.82175796948,1750.63409821541,1021.90593352224
2021.36944444444,5605.78323110653,6614.08547717659,9592.17788438437,7941.01019683306,7045.18693273657,6891.29382520956,4914.07312064373,1694.73091218884,989.412350169368
2021.37222222222,5426.44128403524,6402.18053995839,9284.19846606064,7686.05367161979,6819.26642137619,6670.07780051245,4756.46757536644,1640.58217938984,957.933999420371
2021.375,5252.75757190425,6196.97309878261,8986.00748652051,7439.19594401228,6600.50848993411,6455.87976665555,4603.84902878184,1588.13538235201,927.44064481329
2021.37777777778,5084.56049780413,5998.25949539129,8697.30336274114,7200.18795322408,6388.69365805239,6248.48470137923,4456.06565192562,1537.33939161679,897.902843363695
2021.38055555556,4921.68316095657,5805.84167854578,8417.79309173921,6968.7876796531,6183.60860021395,6047.68360112067,4312.96979746449,1488.1444421203,869.291932328821
2021.38333333333,4763.96326403106,5619.52709029258,8147.19205622402,6744.75999027334,5985.04601416978,5853.27335326616,4174.41791595994,1440.50210897059,841.580015606073
2021.38611111111,4611.24301964122,5439.12855164763,7885.223831098,6527.87648403168,5792.80448905305,5665.05660803632,4040.27047141803,1394.36528271809,814.739949825192
2021.38888888889,4463.36905626955,5264.46414795264,7631.61999111023,6317.91533758473,5606.68837348907,5482.84165030595,3910.39185636475,1349.68814421421,788.745330188961
2021.39166666667,4320.19232385167,5095.35711413937,7386.11991993842,6114.66115167706,5426.50764398112,5306.44227163252,3784.65030666604,1306.42613914581,763.570476113195
2021.39444444444,4181.56799923336,4931.63572012088,7148.47062094749,5917.90479843018,5252.07777382456,5135.67764274116,3662.91781629184,1264.53595232588,739.190416712708
2021.39722222222,4047.35539169729,4773.13315651236,6918.42652984793,5727.44326978408,5083.2196027776,4970.37218669026,3545.07005220574,1223.97548181477,715.580876176301
2021.4,3917.41784873975,4619.68742086834,6695.74932945334,5543.07952730594,4919.75920769295,4810.3554529193,3430.98626954477,1184.70381293968,692.718259070177
2021.40277777778,3791.6226622625,4471.14120460772,6480.20776671518,5364.62235355726,4761.52777429377,4655.46199236005,3320.54922723823,1146.68119227436,670.579635605932
2021.40555555556,3669.84097533018,4327.34178078331,6271.57747219276,5191.88620518856,4608.36147025749,4505.53123377316,3213.64510419999,1109.86900163588,649.142726906115
2021.40833333333,3551.94768962968,4188.14089283884,6069.64078209808,5024.69106791054,4460.10131975272,4360.40736145441,3110.16341621493,1074.22973214969,628.385890297428
2021.41111111111,3437.82137375502,4053.39464448291,5874.18656303762,4862.86231347228,4316.59307955774,4219.93919443886,3009.996933628,1039.72695842993,608.288104658891
2021.41388888889,3327.34417242854,3922.96339079671,5685.01003955771,4706.23055876029,4177.68711687348,4083.98006731585,2913.04159993226,1006.32531291721,588.828955849772
2021.41666666667,3220.40171675807,3796.7116306804,5501.91262458516,4554.63152711658,4043.23828892984,3952.38771275387,2819.19645134204,973.990460412024,569.98862223963
2021.41944444444,3116.88303561856,3674.50790073174,5324.70175284107,4407.90591196,3913.10582447082,3825.02414582186,2728.36353742685,942.68907283814,551.747860360671
2021.42222222222,3016.68046823671,3556.22467064007,5153.19071729333,4265.89924278203,3787.15320719208,3701.75555018129,2640.44784287301,912.388804266731,534.08799070049
2021.425,3084.19533989075,3635.41890512533,5267.88928161272,4360.66416212721,3871.44233309529,3783.99456829897,2699.06058229064,932.64763190264,546.071197036639
2021.42777777778,3108.34209475742,3663.60396199348,5308.64961401529,4394.30483953565,3901.44530114253,3813.16630543915,2719.85009212761,939.873620000146,550.40248355645
2021.43055555556,3117.31018084141,3673.94442803308,5323.53392696735,4406.56004477874,3912.45060275692,3823.76729093418,2727.40545675445,942.540819484818,552.0550322874
2021.43333333333,3120.95600959167,3678.03396547677,5329.34965852183,4411.32560414447,3916.7998053911,3827.8616853502,2730.32544782024,943.612614780098,552.768662878345
2021.43611111111,3122.7261519917,3679.92522988858,5331.97513893219,4413.46041789846,3918.80946889575,3829.66890043209,2731.61705063401,944.125140816883,553.152118142731
2021.43888888889,3123.82613740582,3681.03473207283,5333.46664526416,4414.66322625133,3919.98940915984,3830.66475273178,2732.33171454356,944.440505451727,553.418423674204
2021.44166666667,3124.67797744466,3681.85753060903,5334.54364373063,4415.52770255127,3920.86768986926,3831.36542899068,2732.83698567803,944.685101616502,553.642135515472
2021.44444444444,3125.42972528871,3682.56663797344,5335.45793246792,4416.26113013162,3921.62893421438,3831.95142479739,2733.26123368049,944.902912349059,553.849344097025
2021.44722222222,3126.1336077453,3683.22253688111,5336.29764559179,4416.93572380071,3922.33760623962,3832.48578975853,2733.64919300648,945.109130848663,554.049170360515
2021.45,3126.80829363925,3683.84640457737,5337.093612194,4417.57650991355,3923.01612641774,3832.99047781903,2734.01636430862,945.308912190801,554.244790876004
2021.45277777778,3127.46066226778,3684.44569826429,5337.85658229015,4418.19204906191,3923.67220634857,3833.47306288948,2734.36804094058,945.503928066374,554.437298951889
2021.45555555556,3128.09341719984,3685.02309115681,5338.59026487795,4418.78517169499,3924.30841662902,3833.93608957421,2734.7059620497,945.694655129038,554.627057815367
2021.45833333333,3128.70775363425,3685.57959087852,5339.29589958316,4419.35672601279,3924.92553703313,3834.38034736132,2735.03063764595,945.881171352596,554.814175371977
2021.46111111111,3129.30429709764,3686.11562575746,5339.97386260775,4419.90688397448,3925.52372991802,3834.80601772718,2735.34215993441,946.06343103516,554.998671028637
2021.46388888889,3129.88343764207,3686.63142182203,5340.62423244993,4420.43559476124,3926.10295111966,3835.21307626616,2735.64048539873,946.241358008478,555.180534416574
2021.46666666667,3130.44545218743,3687.12713260809,5341.24698989974,4420.9427411064,3926.66309352574,3835.60143367972,2735.92553201829,946.414875790732,555.359746080432
2021.46944444444,3130.99055215171,3687.6028831325,5341.84208891169,4421.42819240303,3927.20403682948,3835.97098509069,2736.19721206168,946.583916148884,555.536284738448
2021.47222222222,3131.51890430792,3688.05878431133,5342.40948155488,4421.89182216288,3927.72566432341,3836.32162709215,2736.45544255198,946.748420500108,555.710129776872
2021.475,3132.03064167518,3688.49493740072,5342.94912643394,4422.33351329346,3928.2278681166,3836.65326339206,2736.70014809191,946.908339128962,555.881262042363
2021.47777777778,3132.52587038701,3688.91143522752,5343.46099105571,4422.7531592902,3928.71055030772,3836.9658064007,2736.93126115374,947.063629899126,556.049664023663
2021.48055555556,3133.00467468523,3689.30836251218,5343.94505193587,4423.15066410576,3929.17362277554,3837.259177364,2737.14872159176,947.214256994996,556.215319815698
2021.48333333333,3133.46712085615,3689.68579603644,5344.40129385982,4423.5259416193,3929.61700653039,3837.5333059755,2737.3524759702,947.360189837763,556.378215009988
2021.48611111111,3133.91326045342,3690.04380487586,5344.8297088501,4423.87891500333,3930.04063096058,3837.78812980829,2737.54247689655,947.501402192257,556.538336565105
2021.48888888889,3134.34313297901,3690.382450739,5345.23029507023,4424.20951607855,3930.44443309021,3838.02359369666,2737.71868241323,947.637871442864,556.695672677508
2021.49166666667,3134.75676812612,3690.70178839986,5345.60305576784,4424.51768468162,3930.82835688633,3838.23964911973,2737.88105545583,947.76957800926,556.850212660368
2021.49444444444,3135.1541876577,3691.00186619649,5345.9479983045,4424.80336805225,3931.19235262513,3838.43625360938,2738.02956337297,947.89650487463,557.001946832889
2021.49722222222,3135.53540697852,3691.2827265694,5346.26513329388,4425.06652024202,3931.53637631643,3838.61337019293,2738.16417749967,948.018637203414,557.150866420586
