"2020","2021","2022","2023","2024"
0.000296296296296296,0.000296296296296296,0.000296296296296296,0.000296296296296296,0.000296296296296296
0.000140725321762585,0.000140725321762585,0.000140725321762585,0.000140725321762585,0.000140725321762585
0.000264462809917355,0.000264462809917355,0.000264462809917355,0.000264462809917355,0.000264462809917355
0.000381166467124392,0.000381166467124392,0.000381166467124392,0.000381166467124392,0.000381166467124392
0.00106626648763921,0.00106626648763921,0.00106626648763921,0.00106626648763921,0.00106626648763921
0.00277045536775727,0.00277045536775727,0.00277045536775727,0.00277045536775727,0.00277045536775727
0.00695366331626525,0.00695366331626525,0.00695366331626525,0.00695366331626525,0.00695366331626525
0.0187996257184868,0.0187996257184868,0.0187996257184868,0.0187996257184868,0.0187996257184868
0.0954203397118899,0.0954203397118899,0.0954203397118899,0.0954203397118899,0.0954203397118899
